! FASTRON SMD-Inductor Type 0603AS-082J
! SN 8298-18
! 31 Aug 2001  15:13:15
! Frequency       S11                S21                S12                S22
# MHZ  S  RI R  50 
10.000000  0.91743E-2 5.27286E-2  9.92584E-1 -5.27648E-2  9.92309E-1 -5.27343E-2  0.65956E-2 5.28011E-2  
24.975000  2.98614E-2 1.24794E-1  9.76074E-1 -1.26342E-1  9.76226E-1 -1.26342E-1  0.16166E-1 1.27227E-1  
39.950000  0.64514E-1 1.90216E-1  9.51477E-1 -1.94824E-1  9.50622E-1 -1.95404E-1  0.31822E-1 1.98387E-1  
54.925000  1.10519E-1 2.45544E-1  9.18273E-1 -2.56866E-1  9.17480E-1 -2.56744E-1  0.51651E-1 2.64450E-1  
69.900000  1.66046E-1 2.90679E-1  8.77685E-1 -3.10852E-1  8.78173E-1 -3.11828E-1  0.7547E-1 3.26171E-1  
84.875000  2.26562E-1 3.23211E-1  8.33404E-1 -3.57513E-1  8.34045E-1 -3.58123E-1  1.0112E-1 3.81622E-1  
99.850000  2.90283E-1 3.4375E-1  7.86377E-1 -3.95996E-1  7.86987E-1 -3.95874E-1  1.27502E-1 4.31579E-1  
114.825000  3.54858E-1 3.53332E-1  7.38769E-1 -4.26757E-1  7.38952E-1 -4.26574E-1  1.54235E-1 4.76379E-1  
129.800000  4.18701E-1 3.51867E-1  6.89941E-1 -4.50408E-1  6.90368E-1 -4.50378E-1  1.79992E-1 5.16082E-1  
144.775000  4.79064E-1 3.41308E-1  6.43249E-1 -4.67346E-1  6.43432E-1 -4.66735E-1  2.03674E-1 5.51269E-1  
159.750000  5.35064E-1 3.23089E-1  5.97686E-1 -4.78851E-1  5.98632E-1 -4.78515E-1  2.25555E-1 5.82855E-1  
174.725000  5.87921E-1 2.98217E-1  5.55084E-1 -4.85748E-1  5.56152E-1 -4.85961E-1  2.45513E-1 6.11358E-1  
189.700000  6.36291E-1 2.66571E-1  5.14129E-1 -4.88769E-1  5.14801E-1 -4.89196E-1  2.62786E-1 6.37115E-1  
204.675000  6.78436E-1 2.31567E-1  4.76348E-1 -4.88861E-1  4.77172E-1 -4.89502E-1  2.78045E-1 6.60705E-1  
219.650000  7.15148E-1 1.92596E-1  4.41650E-1 -4.86572E-1  4.41894E-1 -4.86389E-1  2.90161E-1 6.81610E-1  
234.625000  7.46887E-1 1.52008E-1  4.09393E-1 -4.81597E-1  4.10049E-1 -4.81231E-1  3.00109E-1 7.00744E-1  
249.600000  7.74139E-1 1.08337E-1  3.79776E-1 -4.75814E-1  3.80645E-1 -4.75494E-1  3.07739E-1 7.18872E-1  
264.575000  7.96173E-1 0.64361E-1  3.52462E-1 -4.68734E-1  3.53622E-1 -4.68200E-1  3.12744E-1 7.35717E-1  
279.550000  8.14361E-1 0.18951E-1  3.26477E-1 -4.59945E-1  3.27774E-1 -4.59945E-1  3.15551E-1 7.51831E-1  
294.525000  8.27972E-1 -2.61840E-2  3.03863E-1 -4.50317E-1  3.04794E-1 -4.50653E-1  3.16955E-1 7.66296E-1  
309.500000  8.39569E-1 -7.26623E-2  2.82989E-1 -4.41284E-1  2.82959E-1 -4.41162E-1  3.15734E-1 7.80700E-1  
324.475000  8.45916E-1 -1.18042E-1  2.63244E-1 -4.31320E-1  2.63778E-1 -4.31579E-1  3.13232E-1 7.94860E-1  
339.450000  8.48632E-1 -1.63055E-1  2.45544E-1 -4.20944E-1  2.45513E-1 -4.21356E-1  3.08593E-1 8.07189E-1  
354.425000  8.48815E-1 -2.07153E-1  2.29370E-1 -4.11468E-1  2.28775E-1 -4.11468E-1  3.03222E-1 8.19458E-1  
369.400000  8.46252E-1 -2.50762E-1  2.14431E-1 -4.01977E-1  2.13958E-1 -4.01535E-1  2.95898E-1 8.31848E-1  
384.375000  8.40728E-1 -2.93548E-1  1.99417E-1 -3.91464E-1  2.00134E-1 -3.91174E-1  2.86560E-1 8.43444E-1  
399.350000  8.32946E-1 -3.35327E-1  1.86676E-1 -3.81286E-1  1.87133E-1 -3.81378E-1  2.77221E-1 8.54126E-1  
414.325000  8.22021E-1 -3.76617E-1  1.74713E-1 -3.71429E-1  1.75354E-1 -3.71429E-1  2.66174E-1 8.65295E-1  
429.300000  8.09600E-1 -4.16076E-1  1.63574E-1 -3.62106E-1  1.64352E-1 -3.62289E-1  2.54333E-1 8.75244E-1  
444.275000  7.95867E-1 -4.53887E-1  1.53717E-1 -3.52249E-1  1.54144E-1 -3.52813E-1  2.40844E-1 8.85314E-1  
459.250000  7.78472E-1 -4.90814E-1  1.44607E-1 -3.42987E-1  1.44836E-1 -3.43490E-1  2.26318E-1 8.94470E-1  
474.225000  7.61261E-1 -5.26733E-1  1.36062E-1 -3.34533E-1  1.36154E-1 -3.34732E-1  2.11914E-1 9.02648E-1  
489.200000  7.41516E-1 -5.61828E-1  1.27533E-1 -3.25714E-1  1.27929E-1 -3.26263E-1  1.96044E-1 9.11621E-1  
504.175000  7.21099E-1 -5.94604E-1  1.20254E-1 -3.16894E-1  1.20498E-1 -3.17642E-1  1.79016E-1 9.20043E-1  
519.150000  6.98181E-1 -6.26831E-1  1.13067E-1 -3.08853E-1  1.13311E-1 -3.09310E-1  1.61621E-1 9.27002E-1  
534.125000  6.74011E-1 -6.56860E-1  1.06475E-1 -3.00781E-1  1.06781E-1 -3.01055E-1  1.43920E-1 9.32739E-1  
549.100000  6.49475E-1 -6.86828E-1  1.00357E-1 -2.92846E-1  1.01059E-1 -2.93518E-1  1.25061E-1 9.39025E-1  
564.075000  6.22436E-1 -7.14935E-1  0.94848E-1 -2.85110E-1  0.95153E-1 -2.85995E-1  1.05896E-1 9.45007E-1  
579.050000  5.95886E-1 -7.40722E-1  0.89859E-1 -2.78121E-1  0.89691E-1 -2.78350E-1  0.85876E-1 9.50073E-1  
594.025000  5.67901E-1 -7.65777E-1  0.84365E-1 -2.71026E-1  0.84365E-1 -2.70889E-1  0.64941E-1 9.54650E-1  
609.000000  5.39093E-1 -7.89276E-1  0.79742E-1 -2.63504E-1  0.79772E-1 -2.63458E-1  0.44738E-1 9.57885E-1  
623.975000  5.08789E-1 -8.11554E-1  0.75347E-1 -2.56835E-1  0.75592E-1 -2.56897E-1  0.23986E-1 9.61425E-1  
638.950000  4.78698E-1 -8.32244E-1  0.71609E-1 -2.50152E-1  0.71411E-1 -2.49954E-1  0.01953E-1 9.63684E-1  
653.925000  4.47357E-1 -8.51776E-1  0.67237E-1 -2.43721E-1  0.67749E-1 -2.43797E-1  -1.95312E-2 9.66156E-1  
668.900000  4.15649E-1 -8.69567E-1  0.63964E-1 -2.37236E-1  0.63919E-1 -2.37281E-1  -4.19311E-2 9.66735E-1  
683.875000  3.82690E-1 -8.86138E-1  0.60485E-1 -2.31292E-1  0.60623E-1 -2.31269E-1  -6.48193E-2 9.67529E-1  
698.850000  3.50219E-1 -9.01733E-1  0.57167E-1 -2.25265E-1  0.57289E-1 -2.25151E-1  -8.80127E-2 9.67193E-1  
713.825000  3.17016E-1 -9.15954E-1  0.54031E-1 -2.19238E-1  0.54168E-1 -2.19574E-1  -1.11389E-1 9.66613E-1  
728.800000  2.83081E-1 -9.27307E-1  0.51269E-1 -2.1315E-1  0.51269E-1 -2.13851E-1  -1.34460E-1 9.65515E-1  
743.775000  2.49755E-1 -9.39056E-1  0.48591E-1 -2.07954E-1  0.48568E-1 -2.07954E-1  -1.58538E-1 9.63195E-1  
758.750000  2.15515E-1 -9.48272E-1  0.46020E-1 -2.02438E-1  0.46157E-1 -2.02621E-1  -1.82128E-1 9.60968E-1  
773.725000  1.81671E-1 -9.57122E-1  0.43975E-1 -1.96876E-1  0.43762E-1 -1.97265E-1  -2.06054E-1 9.57428E-1  
788.700000  1.46759E-1 -9.63501E-1  0.41580E-1 -1.91925E-1  0.41618E-1 -1.92359E-1  -2.29583E-1 9.53613E-1  
803.675000  1.13037E-1 -9.69909E-1  0.39245E-1 -1.87164E-1  0.39459E-1 -1.87316E-1  -2.53234E-1 9.48730E-1  
818.650000  0.78674E-1 -9.73815E-1  0.37139E-1 -1.82144E-1  0.37551E-1 -1.82327E-1  -2.76916E-1 9.43054E-1  
833.625000  0.44250E-1 -9.77508E-1  0.35285E-1 -1.77116E-1  0.35415E-1 -1.77619E-1  -3.00109E-1 9.36615E-1  
848.600000  0.09521E-1 -9.78820E-1  0.33386E-1 -1.72699E-1  0.33630E-1 -1.72851E-1  -3.24340E-1 9.29565E-1  
863.575000  -2.40783E-2 -9.79339E-1  0.31608E-1 -1.6819E-1  0.31875E-1 -1.68365E-1  -3.47869E-1 9.21356E-1  
878.550000  -5.88989E-2 -9.79064E-1  0.30227E-1 -1.63513E-1  0.30250E-1 -1.63818E-1  -3.72100E-1 9.13330E-1  
893.525000  -9.39331E-2 -9.77111E-1  0.28831E-1 -1.59500E-1  0.28808E-1 -1.59530E-1  -3.95690E-1 9.04174E-1  
908.500000  -1.26709E-1 -9.74060E-1  0.2742E-1 -1.55433E-1  0.27183E-1 -1.55311E-1  -4.18396E-1 8.94775E-1  
923.475000  -1.60766E-1 -9.70642E-1  0.25642E-1 -1.51207E-1  0.25871E-1 -1.50894E-1  -4.42443E-1 8.84277E-1  
938.450000  -1.94030E-1 -9.64660E-1  0.24368E-1 -1.46972E-1  0.24665E-1 -1.46995E-1  -4.65179E-1 8.73077E-1  
953.425000  -2.28149E-1 -9.58007E-1  0.23208E-1 -1.42890E-1  0.23292E-1 -1.43165E-1  -4.88128E-1 8.61084E-1  
968.400000  -2.61047E-1 -9.49707E-1  0.21980E-1 -1.39343E-1  0.22369E-1 -1.39068E-1  -5.11016E-1 8.48693E-1  
983.375000  -2.92846E-1 -9.41467E-1  0.20782E-1 -1.35284E-1  0.20919E-1 -1.35284E-1  -5.32409E-1 8.35662E-1  
998.350000  -3.25012E-1 -9.31396E-1  0.19752E-1 -1.31347E-1  0.19790E-1 -1.31462E-1  -5.55542E-1 8.21929E-1  
1013.325000  -3.56750E-1 -9.18762E-1  0.18928E-1 -1.27845E-1  0.19004E-1 -1.27975E-1  -5.77056E-1 8.08319E-1  
1028.300000  -3.87390E-1 -9.07470E-1  1.79367E-2 -1.24183E-1  1.79138E-2 -1.24313E-1  -5.98846E-1 7.92938E-1  
1043.275000  -4.18151E-1 -8.95019E-1  1.68342E-2 -1.20754E-1  1.70745E-2 -1.20861E-1  -6.19506E-1 7.77496E-1  
1058.250000  -4.48303E-1 -8.80554E-1  1.59454E-2 -1.17351E-1  1.60636E-2 -1.17504E-1  -6.39617E-1 7.61657E-1  
1073.225000  -4.77600E-1 -8.64990E-1  1.50985E-2 -1.14040E-1  1.53312E-2 -1.14166E-1  -6.60614E-1 7.44049E-1  
1088.200000  -5.05798E-1 -8.48632E-1  1.43356E-2 -1.10584E-1  1.44996E-2 -1.10759E-1  -6.79351E-1 7.26532E-1  
1103.175000  -5.33447E-1 -8.31298E-1  1.35879E-2 -1.07284E-1  1.38244E-2 -1.07231E-1  -6.98974E-1 7.08129E-1  
1118.150000  -5.61706E-1 -8.13354E-1  1.29203E-2 -1.04251E-1  1.30767E-2 -1.04141E-1  -7.18017E-1 6.8927E-1  
1133.125000  -5.87524E-1 -7.94799E-1  1.22299E-2 -1.01215E-1  1.24168E-2 -1.01219E-1  -7.36602E-1 6.70501E-1  
1148.100000  -6.14257E-1 -7.75756E-1  1.14898E-2 -9.82055E-2  1.16882E-2 -9.78927E-2  -7.54028E-1 6.50634E-1  
1163.075000  -6.39404E-1 -7.54638E-1  1.09596E-2 -9.52453E-2  1.11541E-2 -9.51042E-2  -7.72186E-1 6.30096E-1  
1178.050000  -6.64306E-1 -7.33764E-1  1.05857E-2 -9.21325E-2  1.05972E-2 -9.20181E-2  -7.88085E-1 6.10046E-1  
1193.025000  -6.88415E-1 -7.11486E-1  0.99487E-2 -8.91532E-2  1.00441E-2 -8.91876E-2  -8.05389E-1 5.88623E-1  
1208.000000  -7.10876E-1 -6.88659E-1  0.94146E-2 -8.62999E-2  0.94947E-2 -8.64448E-2  -8.21807E-1 5.66680E-1  
1222.975000  -7.33764E-1 -6.64733E-1  0.90980E-2 -8.36677E-2  0.88653E-2 -8.36639E-2  -8.36486E-1 5.45135E-1  
1237.950000  -7.54760E-1 -6.40625E-1  0.86937E-2 -8.09249E-2  0.85144E-2 -8.07762E-2  -8.51409E-1 5.22094E-1  
1252.925000  -7.75817E-1 -6.16272E-1  0.77743E-2 -7.80487E-2  0.81100E-2 -7.80715E-2  -8.64624E-1 4.99603E-1  
1267.900000  -7.96386E-1 -5.89904E-1  0.73547E-2 -7.55386E-2  0.78735E-2 -7.53822E-2  -8.77655E-1 4.76074E-1  
1282.875000  -8.15246E-1 -5.64392E-1  0.69656E-2 -7.28111E-2  0.73356E-2 -7.28073E-2  -8.91174E-1 4.52514E-1  
1297.850000  -8.33129E-1 -5.37353E-1  0.66528E-2 -7.02285E-2  0.70877E-2 -7.03201E-2  -9.03564E-1 4.27795E-1  
1312.825000  -8.49365E-1 -5.11108E-1  0.62484E-2 -6.76269E-2  0.66909E-2 -6.78634E-2  -9.15405E-1 4.02832E-1  
1327.800000  -8.65478E-1 -4.83642E-1  0.60195E-2 -6.50863E-2  0.61607E-2 -6.52694E-2  -9.25781E-1 3.78509E-1  
1342.775000  -8.80188E-1 -4.55749E-1  0.57716E-2 -6.27250E-2  0.58479E-2 -6.29005E-2  -9.35607E-1 3.53057E-1  
1357.750000  -8.94775E-1 -4.26757E-1  0.53825E-2 -6.03447E-2  0.54092E-2 -6.04896E-2  -9.45404E-1 3.27972E-1  
1372.725000  -9.08264E-1 -3.97460E-1  0.50888E-2 -5.79681E-2  0.51460E-2 -5.80673E-2  -9.53979E-1 3.01605E-1  
1387.700000  -9.20776E-1 -3.68164E-1  0.47836E-2 -5.56640E-2  0.48027E-2 -5.56831E-2  -9.61547E-1 2.75726E-1  
1402.675000  -9.32434E-1 -3.38623E-1  0.45070E-2 -5.34153E-2  0.46043E-2 -5.32608E-2  -9.68872E-1 2.49633E-1  
1417.650000  -9.43115E-1 -3.08715E-1  0.41465E-2 -5.11283E-2  0.43830E-2 -5.10597E-2  -9.75524E-1 2.23205E-1  
1432.625000  -9.52636E-1 -2.79052E-1  0.39520E-2 -4.88662E-2  0.41656E-2 -4.89158E-2  -9.81628E-1 1.95922E-1  
1447.600000  -9.61181E-1 -2.48291E-1  0.37918E-2 -4.66880E-2  0.39939E-2 -4.67414E-2  -9.87182E-1 1.69555E-1  
1462.575000  -9.69116E-1 -2.17529E-1  0.35400E-2 -4.45861E-2  0.37117E-2 -4.45861E-2  -9.90966E-1 1.42761E-1  
1477.550000  -9.74853E-1 -1.87133E-1  0.33531E-2 -4.23851E-2  0.34942E-2 -4.24118E-2  -9.94384E-1 1.15478E-1  
1492.525000  -9.80835E-1 -1.56616E-1  0.32043E-2 -4.03404E-2  0.33206E-2 -4.04510E-2  -9.97924E-1 0.88134E-1  
1507.500000  -9.84619E-1 -1.25427E-1  0.30689E-2 -3.82785E-2  0.31204E-2 -3.82995E-2  -9.99511E-1 0.60974E-1  
1522.475000  -9.88159E-1 -9.44213E-2  0.29087E-2 -3.62453E-2  0.28781E-2 -3.62625E-2  -1.00152E0 0.33447E-1  
1537.450000  -9.90783E-1 -6.31713E-2  0.27542E-2 -3.41854E-2  0.27980E-2 -3.41949E-2  -1.00213E0 0.05676E-1  
1552.425000  -9.92126E-1 -3.18603E-2  0.26550E-2 -3.22628E-2  0.27008E-2 -3.22685E-2  -1.00195E0 -2.10571E-2  
1567.400000  -9.92736E-1 -1.95312E-3  0.25310E-2 -3.03268E-2  0.25386E-2 -3.02810E-2  -1.00012E0 -4.90112E-2  
1582.375000  -9.92614E-1 0.30273E-1  0.22811E-2 -2.84118E-2  0.24032E-2 -2.84080E-2  -9.98718E-1 -7.59277E-2  
1597.350000  -9.90539E-1 0.61767E-1  0.22316E-2 -2.64606E-2  0.23365E-2 -2.65541E-2  -9.97314E-1 -1.03637E-1  
1612.325000  -9.88220E-1 0.92651E-1  0.20999E-2 -2.47077E-2  0.22525E-2 -2.46639E-2  -9.94506E-1 -1.30981E-1  
1627.300000  -9.85412E-1 1.23901E-1  0.19550E-2 -2.27756E-2  0.21038E-2 -2.27947E-2  -9.89624E-1 -1.57897E-1  
1642.275000  -9.81079E-1 1.54663E-1  0.19359E-2 -2.09827E-2  0.19817E-2 -2.09579E-2  -9.84863E-1 -1.85791E-1  
1657.250000  -9.75647E-1 1.85180E-1  0.18634E-2 -1.91955E-2  0.18749E-2 -1.92031E-2  -9.80102E-1 -2.12280E-1  
1672.225000  -9.69818E-1 2.14843E-1  0.18320E-2 -1.74665E-2  0.18043E-2 -1.73664E-2  -9.73449E-1 -2.38891E-1  
1687.200000  -9.63317E-1 2.44567E-1  0.17719E-2 -1.57566E-2  0.17814E-2 -1.57032E-2  -9.66918E-1 -2.64892E-1  
1702.175000  -9.55322E-1 2.74658E-1  1.69944E-3 -1.39884E-2  1.67560E-3 -1.39532E-2  -9.59228E-1 -2.91259E-1  
1717.150000  -9.46228E-1 3.03955E-1  1.64604E-3 -1.23195E-2  1.72710E-3 -1.22346E-2  -9.51049E-1 -3.17993E-1  
1732.125000  -9.36523E-1 3.32946E-1  1.54495E-3 -1.05972E-2  1.61075E-3 -1.05476E-2  -9.41650E-1 -3.43994E-1  
1747.100000  -9.25384E-1 3.62060E-1  1.55019E-3 -8.90111E-3  1.59168E-3 -8.92496E-3  -9.32495E-1 -3.69934E-1  
1762.075000  -9.14398E-1 3.89495E-1  1.51133E-3 -7.31468E-3  1.50299E-3 -7.22575E-3  -9.21264E-1 -3.94775E-1  
1777.050000  -9.01519E-1 4.17602E-1  1.54566E-3 -5.71417E-3  1.50275E-3 -5.66411E-3  -9.10705E-1 -4.20166E-1  
1792.025000  -8.87817E-1 4.45068E-1  1.51395E-3 -4.11891E-3  1.54399E-3 -4.05311E-3  -8.98559E-1 -4.45312E-1  
1807.000000  -8.75E-1 4.73266E-1  1.49750E-3 -2.55703E-3  1.52087E-3 -2.52747E-3  -8.86230E-1 -4.69482E-1  
1821.975000  -8.59741E-1 4.98962E-1  1.50716E-3 -1.02067E-3  1.50251E-3 -9.50694E-4  -8.72924E-1 -4.93774E-1  
1836.950000  -8.43200E-1 5.24231E-1  1.45149E-3 4.85420E-4  1.42383E-3 5.85079E-4  -8.59497E-1 -5.16479E-1  
1851.925000  -8.27636E-1 5.49743E-1  1.44767E-3 2.06446E-3  1.48797E-3 2.07495E-3  -8.45459E-1 -5.40283E-1  
1866.900000  -8.10058E-1 5.74279E-1  1.47247E-3 3.54719E-3  1.44910E-3 3.57484E-3  -8.29956E-1 -5.63964E-1  
1881.875000  -7.91107E-1 5.99090E-1  1.50775E-3 4.99224E-3  1.50871E-3 5.08260E-3  -8.14025E-1 -5.86120E-1  
1896.850000  -7.73712E-1 6.23046E-1  1.48868E-3 6.46638E-3  1.50823E-3 6.52647E-3  -7.97485E-1 -6.07910E-1  
1911.825000  -7.54333E-1 6.46850E-1  1.50394E-3 7.94792E-3  1.47151E-3 7.88116E-3  -7.81738E-1 -6.29272E-1  
1926.800000  -7.34497E-1 6.69189E-1  1.60121E-3 9.34314E-3  1.53923E-3 9.32979E-3  -7.64282E-1 -6.50024E-1  
1941.775000  -7.12707E-1 6.90918E-1  1.60884E-3 1.07631E-2  1.53064E-3 1.07116E-2  -7.46582E-1 -6.71386E-1  
1956.750000  -6.92016E-1 7.12646E-1  1.65939E-3 1.21469E-2  1.63269E-3 1.20954E-2  -7.27539E-1 -6.91650E-1  
1971.725000  -6.69677E-1 7.32971E-1  1.67560E-3 1.34506E-2  1.66702E-3 1.34687E-2  -7.07519E-1 -7.10815E-1  
1986.700000  -6.47827E-1 7.53051E-1  1.67465E-3 1.48296E-2  1.62506E-3 1.48735E-2  -6.87744E-1 -7.29370E-1  
2001.675000  -6.24877E-1 7.71789E-1  0.17375E-2 1.61819E-2  0.16994E-2 1.61857E-2  -6.68457E-1 -7.47924E-1  
2016.650000  -6.02111E-1 7.90100E-1  0.18081E-2 1.74598E-2  0.18005E-2 1.74465E-2  -6.47583E-1 -7.65869E-1  
2031.625000  -5.77728E-1 8.07647E-1  0.18081E-2 1.87692E-2  0.18301E-2 1.88217E-2  -6.2677E-1 -7.84118E-1  
2046.600000  -5.52917E-1 8.25073E-1  0.18405E-2 2.00710E-2  0.18539E-2 2.01244E-2  -6.04492E-1 -8.00903E-1  
2061.575000  -5.27832E-1 8.41003E-1  0.19912E-2 2.13890E-2  0.18615E-2 2.13317E-2  -5.82519E-1 -8.16772E-1  
2076.550000  -5.02746E-1 8.56811E-1  0.20618E-2 2.26535E-2  0.19474E-2 2.25791E-2  -5.60546E-1 -8.31543E-1  
2091.525000  -4.76562E-1 8.71154E-1  0.20084E-2 2.38637E-2  0.19702E-2 2.38647E-2  -5.38818E-1 -8.46984E-1  
2106.500000  -4.50195E-1 8.84460E-1  0.21266E-2 2.50282E-2  0.20847E-2 2.50511E-2  -5.14160E-1 -8.61572E-1  
2121.475000  -4.23584E-1 8.97460E-1  0.21820E-2 2.62718E-2  0.20866E-2 2.62870E-2  -4.89624E-1 -8.74877E-1  
2136.450000  -3.97583E-1 9.10217E-1  0.22182E-2 2.74810E-2  0.21305E-2 2.75325E-2  -4.65698E-1 -8.87207E-1  
2151.425000  -3.70117E-1 9.21936E-1  0.23069E-2 2.86998E-2  0.23193E-2 2.86846E-2  -4.42260E-1 -9.00451E-1  
2166.400000  -3.42285E-1 9.32708E-1  0.23975E-2 2.98652E-2  0.23250E-2 2.98786E-2  -4.17602E-1 -9.11010E-1  
2181.375000  -3.15490E-1 9.42565E-1  0.24852E-2 3.11203E-2  0.24623E-2 3.11031E-2  -3.93615E-1 -9.23156E-1  
2196.350000  -2.87292E-1 9.51171E-1  0.26168E-2 3.22418E-2  0.25520E-2 3.21159E-2  -3.67675E-1 -9.32861E-1  
2211.325000  -2.59399E-1 9.58190E-1  0.26321E-2 3.32794E-2  0.25100E-2 3.32527E-2  -3.41918E-1 -9.42138E-1  
2226.300000  -2.29980E-1 9.64172E-1  0.27313E-2 3.44467E-2  0.26283E-2 3.43627E-2  -3.16528E-1 -9.51171E-1  
2241.275000  -2.02575E-1 9.71679E-1  0.28114E-2 3.55300E-2  0.26969E-2 3.54690E-2  -2.91137E-1 -9.59106E-1  
2256.250000  -1.73339E-1 9.76501E-1  0.28610E-2 3.66478E-2  0.27923E-2 3.66096E-2  -2.65014E-1 -9.67407E-1  
2271.225000  -1.44409E-1 9.81201E-1  0.29869E-2 3.77502E-2  0.28648E-2 3.77655E-2  -2.38403E-1 -9.73999E-1  
2286.200000  -1.15722E-1 9.84497E-1  0.31032E-2 3.87973E-2  0.30345E-2 3.87916E-2  -2.11669E-1 -9.79736E-1  
2301.175000  -8.65783E-2 9.88159E-1  0.31547E-2 3.98807E-2  0.30403E-2 3.98407E-2  -1.85363E-1 -9.84314E-1  
2316.150000  -5.65795E-2 9.89410E-1  0.32501E-2 4.08592E-2  0.32215E-2 4.09088E-2  -1.58935E-1 -9.90478E-1  
2331.125000  -2.80151E-2 9.90905E-1  0.32997E-2 4.20036E-2  0.32787E-2 4.18872E-2  -1.32019E-1 -9.93896E-1  
2346.100000  0.00366E-1 9.92492E-1  0.34942E-2 4.30507E-2  0.33416E-2 4.28829E-2  -1.04126E-1 -9.96948E-1  
2361.075000  0.29418E-1 9.91333E-1  0.35667E-2 4.40788E-2  0.34294E-2 4.38537E-2  -7.86132E-2 -9.99145E-1  
2376.050000  0.58105E-1 9.89990E-1  0.37155E-2 4.51049E-2  0.35057E-2 4.48722E-2  -5.22460E-2 -1.00085E0  
2391.025000  0.87097E-1 9.88037E-1  0.37479E-2 4.60376E-2  0.35629E-2 4.59022E-2  -2.46582E-2 -1.00250E0  
2406.000000  1.15905E-1 9.84619E-1  0.39520E-2 4.70161E-2  0.36754E-2 4.69608E-2  0.01892E-1 -1.00280E0  
2420.975000  1.44165E-1 9.80346E-1  0.39043E-2 4.79564E-2  0.38261E-2 4.78935E-2  0.28442E-1 -1.00219E0  
2435.950000  1.72790E-1 9.75769E-1  0.40950E-2 4.89196E-2  0.39939E-2 4.87766E-2  0.56335E-1 -1.00079E0  
2450.925000  2.01355E-1 9.70031E-1  0.41160E-2 4.98542E-2  0.40245E-2 4.98008E-2  0.82946E-1 -9.99084E-1  
2465.900000  2.30346E-1 9.64965E-1  0.42305E-2 5.08422E-2  0.42743E-2 5.07278E-2  1.08337E-1 -9.96948E-1  
2480.875000  2.57690E-1 9.57336E-1  0.42362E-2 5.17883E-2  0.41999E-2 5.16490E-2  1.35559E-1 -9.92675E-1  
2495.850000  2.85583E-1 9.49035E-1  0.44746E-2 5.2742E-2  0.45185E-2 5.25322E-2  1.61743E-1 -9.89929E-1  
2510.825000  3.12255E-1 9.40673E-1  0.45814E-2 5.37223E-2  0.45318E-2 5.34286E-2  1.88293E-1 -9.84314E-1  
2525.800000  3.39233E-1 9.32312E-1  0.47950E-2 5.46379E-2  0.45890E-2 5.43289E-2  2.14477E-1 -9.79064E-1  
2540.775000  3.65844E-1 9.21020E-1  0.48599E-2 5.54809E-2  0.46768E-2 5.52482E-2  2.39990E-1 -9.73327E-1  
2555.750000  3.91052E-1 9.09484E-1  0.48389E-2 5.62992E-2  0.47397E-2 5.61714E-2  2.65502E-1 -9.67407E-1  
2570.725000  4.16748E-1 8.98071E-1  0.50869E-2 5.71537E-2  0.48408E-2 5.70926E-2  2.92541E-1 -9.58526E-1  
2585.700000  4.41955E-1 8.85742E-1  0.52223E-2 5.81016E-2  0.50144E-2 5.79586E-2  3.17871E-1 -9.50683E-1  
2600.675000  4.67773E-1 8.72314E-1  0.52490E-2 5.89408E-2  0.51956E-2 5.88645E-2  3.41949E-1 -9.41284E-1  
2615.650000  4.93103E-1 8.57849E-1  0.53825E-2 5.97801E-2  0.53176E-2 5.97076E-2  3.66333E-1 -9.32434E-1  
2630.625000  5.18310E-1 8.43566E-1  0.55046E-2 6.07070E-2  0.54779E-2 6.04972E-2  3.91387E-1 -9.23492E-1  
2645.600000  5.41992E-1 8.28308E-1  0.56114E-2 6.16226E-2  0.55084E-2 6.13822E-2  4.16870E-1 -9.11377E-1  
2660.575000  5.6604E-1 8.12133E-1  0.57449E-2 6.23588E-2  0.56266E-2 6.21070E-2  4.40673E-1 -9.00695E-1  
2675.550000  5.88745E-1 7.95532E-1  0.59204E-2 6.32286E-2  0.56839E-2 6.29119E-2  4.63867E-1 -8.88000E-1  
2690.525000  6.11633E-1 7.78991E-1  0.61225E-2 6.41441E-2  0.58975E-2 6.38427E-2  4.86846E-1 -8.76739E-1  
2705.500000  6.32690E-1 7.61901E-1  0.61759E-2 6.48574E-2  0.59471E-2 6.46896E-2  5.09796E-1 -8.63403E-1  
2720.475000  6.53625E-1 7.43774E-1  0.62255E-2 6.56356E-2  0.59967E-2 6.55212E-2  5.33508E-1 -8.49914E-1  
2735.450000  6.74011E-1 7.24670E-1  0.63514E-2 6.64024E-2  0.61721E-2 6.64176E-2  5.55786E-1 -8.35784E-1  
2750.425000  6.93969E-1 7.04650E-1  0.64621E-2 6.71424E-2  0.63362E-2 6.70852E-2  5.77209E-1 -8.19671E-1  
2765.400000  7.14172E-1 6.83898E-1  0.64926E-2 6.80160E-2  0.64888E-2 6.78405E-2  5.98205E-1 -8.04321E-1  
2780.375000  7.32727E-1 6.62536E-1  0.66642E-2 6.86454E-2  0.66261E-2 6.85653E-2  6.19079E-1 -7.88269E-1  
2795.350000  7.52197E-1 6.42700E-1  0.68016E-2 6.95686E-2  0.66413E-2 6.92977E-2  6.40228E-1 -7.71362E-1  
2810.325000  7.69836E-1 6.20666E-1  0.69961E-2 7.02514E-2  0.67710E-2 7.01332E-2  6.60949E-1 -7.54211E-1  
2825.300000  7.87597E-1 5.97900E-1  0.71334E-2 7.10754E-2  0.69541E-2 7.09343E-2  6.79168E-1 -7.36602E-1  
2840.275000  8.04077E-1 5.76355E-1  0.73928E-2 7.18269E-2  0.71373E-2 7.17048E-2  6.98455E-1 -7.18536E-1  
2855.250000  8.19091E-1 5.53955E-1  0.74539E-2 7.25936E-2  0.70877E-2 7.24411E-2  7.17895E-1 -7.00500E-1  
2870.225000  8.35205E-1 5.30029E-1  0.75988E-2 7.32116E-2  0.72174E-2 7.31506E-2  7.35900E-1 -6.80481E-1  
2885.200000  8.48388E-1 5.06347E-1  0.75302E-2 7.39288E-2  0.72479E-2 7.39212E-2  7.53906E-1 -6.60949E-1  
2900.175000  8.62854E-1 4.82116E-1  0.76866E-2 7.46765E-2  0.75759E-2 7.45315E-2  7.69561E-1 -6.40350E-1  
2915.150000  8.76037E-1 4.57763E-1  0.77972E-2 7.54623E-2  0.77476E-2 7.53021E-2  7.86315E-1 -6.20605E-1  
2930.125000  8.88305E-1 4.32739E-1  0.78773E-2 7.60650E-2  0.78506E-2 7.58857E-2  8.02032E-1 -5.99731E-1  
2945.100000  8.99841E-1 4.07165E-1  0.79307E-2 7.67288E-2  0.79536E-2 7.66525E-2  8.17657E-1 -5.78613E-1  
2960.075000  9.11071E-1 3.80981E-1  0.82855E-2 7.73887E-2  0.81405E-2 7.72934E-2  8.32061E-1 -5.56884E-1  
2975.050000  9.21752E-1 3.56018E-1  0.83465E-2 7.81021E-2  0.8255E-2 7.80067E-2  8.45581E-1 -5.34942E-1  
2990.025000  9.31823E-1 3.29650E-1  0.85716E-2 7.86743E-2  0.83808E-2 7.86056E-2  8.59649E-1 -5.13031E-1  
3005.000000  9.40795E-1 3.02734E-1  0.87356E-2 7.93304E-2  0.84762E-2 7.92923E-2  8.72253E-1 -4.90661E-1  
3019.975000  9.50378E-1 2.76550E-1  0.87966E-2 8.00018E-2  0.86784E-2 7.98797E-2  8.84063E-1 -4.68109E-1  
3034.950000  9.55383E-1 2.50305E-1  0.88501E-2 8.04939E-2  0.87432E-2 8.05358E-2  8.95843E-1 -4.46197E-1  
3049.925000  9.63378E-1 2.22656E-1  0.90217E-2 8.11462E-2  0.88729E-2 8.10623E-2  9.05151E-1 -4.21142E-1  
3064.900000  9.69665E-1 1.97448E-1  0.91705E-2 8.18214E-2  0.91552E-2 8.18138E-2  9.16595E-1 -3.98101E-1  
3079.875000  9.74182E-1 1.68823E-1  0.91934E-2 8.23745E-2  0.93040E-2 8.23516E-2  9.25048E-1 -3.75579E-1  
3094.850000  9.77783E-1 1.42272E-1  0.91705E-2 8.29544E-2  0.93536E-2 8.29315E-2  9.34722E-1 -3.51379E-1  
3109.825000  9.81933E-1 1.14807E-1  0.94566E-2 8.36792E-2  0.94413E-2 8.33931E-2  9.42413E-1 -3.26843E-1  
3124.800000  9.84741E-1 0.87402E-1  0.95825E-2 8.42781E-2  0.95634E-2 8.39500E-2  9.50866E-1 -3.03833E-1  
3139.775000  9.86175E-1 0.59906E-1  0.97694E-2 8.46405E-2  0.96397E-2 8.44192E-2  9.55993E-1 -2.80731E-1  
3154.750000  9.87548E-1 0.32409E-1  0.98953E-2 8.51135E-2  0.96817E-2 8.48922E-2  9.61120E-1 -2.56591E-1  
3169.725000  9.87579E-1 0.05279E-1  1.00708E-2 8.54644E-2  0.97236E-2 8.53691E-2  9.65850E-1 -2.33123E-1  
3184.700000  9.87426E-1 -2.27661E-2  1.01089E-2 8.58726E-2  0.97732E-2 8.58802E-2  9.71099E-1 -2.09808E-1  
3199.675000  9.86511E-1 -5.14831E-2  1.00517E-2 8.61930E-2  0.99105E-2 8.62846E-2  9.74426E-1 -1.86096E-1  
3214.650000  9.85015E-1 -7.82470E-2  1.00517E-2 8.65249E-2  1.00135E-2 8.65745E-2  9.74151E-1 -1.63696E-1  
3229.625000  9.83123E-1 -1.04858E-1  0.99411E-2 8.68225E-2  1.00631E-2 8.67385E-2  9.73785E-1 -1.41754E-1  
3244.600000  9.79339E-1 -1.32934E-1  0.97808E-2 8.68644E-2  0.98495E-2 8.67309E-2  9.70245E-1 -1.20025E-1  
3259.575000  9.74334E-1 -1.60095E-1  0.91857E-2 8.66661E-2  0.93689E-2 8.67385E-2  9.65667E-1 -9.94873E-2  
3274.550000  9.70459E-1 -1.86798E-1  0.8564E-2 8.67347E-2  0.84686E-2 8.65974E-2  9.53308E-1 -7.70568E-2  
3289.525000  9.65301E-1 -2.12829E-1  0.71106E-2 8.66622E-2  0.70152E-2 8.65745E-2  9.36737E-1 -5.04150E-2  
3304.500000  9.58770E-1 -2.39257E-1  0.47950E-2 8.73031E-2  0.47226E-2 8.74328E-2  9.15588E-1 -1.48315E-2  
3319.475000  9.51263E-1 -2.66174E-1  0.24375E-2 8.95156E-2  0.24566E-2 8.96949E-2  8.96759E-1 0.35278E-1  
3334.450000  9.42627E-1 -2.91931E-1  0.16517E-2 9.32121E-2  0.15296E-2 9.33380E-2  8.95446E-1 0.92407E-1  
3349.425000  9.33349E-1 -3.17443E-1  0.26435E-2 9.64889E-2  0.24032E-2 9.66491E-2  9.08935E-1 1.40930E-1  
3364.400000  9.24072E-1 -3.44085E-1  0.40931E-2 9.86137E-2  0.41236E-2 9.88388E-2  9.25415E-1 1.75964E-1  
3379.375000  9.14672E-1 -3.69903E-1  0.58288E-2 9.99069E-2  0.57601E-2 1.00055E-1  9.37011E-1 2.02270E-1  
3394.350000  9.04602E-1 -3.93463E-1  0.71067E-2 1.00669E-1  0.69885E-2 1.00841E-1  9.42230E-1 2.24762E-1  
3409.325000  8.9328E-1 -4.18548E-1  0.79917E-2 1.01188E-1  0.79307E-2 1.01352E-1  9.44274E-1 2.47619E-1  
3424.300000  8.81530E-1 -4.42657E-1  0.85830E-2 1.01612E-1  0.87738E-2 1.01944E-1  9.45251E-1 2.68981E-1  
3439.275000  8.69934E-1 -4.67895E-1  0.92887E-2 1.02348E-1  0.93841E-2 1.02333E-1  9.42260E-1 2.92175E-1  
3454.250000  8.55560E-1 -4.91424E-1  0.96359E-2 1.02836E-1  0.98877E-2 1.02741E-1  9.375E-1 3.14147E-1  
3469.225000  8.41949E-1 -5.14862E-1  1.01394E-2 1.03176E-1  1.01661E-2 1.03164E-1  9.31152E-1 3.36425E-1  
3484.200000  8.27117E-1 -5.37597E-1  1.04827E-2 1.03637E-1  1.04637E-2 1.03771E-1  9.26086E-1 3.59680E-1  
3499.175000  8.12103E-1 -5.59356E-1  1.10473E-2 1.04141E-1  1.07917E-2 1.04229E-1  9.17541E-1 3.82141E-1  
3514.150000  7.96691E-1 -5.81207E-1  1.13525E-2 1.04499E-1  1.10702E-2 1.04805E-1  9.08325E-1 4.05029E-1  
3529.125000  7.80029E-1 -6.03118E-1  1.14402E-2 1.04831E-1  1.14517E-2 1.05388E-1  8.99902E-1 4.27063E-1  
3544.100000  7.62878E-1 -6.24267E-1  1.16920E-2 1.05472E-1  1.17225E-2 1.05781E-1  8.88549E-1 4.49646E-1  
3559.075000  7.45880E-1 -6.4505E-1  1.18904E-2 1.05960E-1  1.19895E-2 1.06342E-1  8.77502E-1 4.72412E-1  
3574.050000  7.28424E-1 -6.65069E-1  1.21002E-2 1.06487E-1  1.24054E-2 1.06723E-1  8.66149E-1 4.93408E-1  
3589.025000  7.10174E-1 -6.85852E-1  1.23138E-2 1.07223E-1  1.25541E-2 1.07383E-1  8.55163E-1 5.15747E-1  
3604.000000  6.90460E-1 -7.03552E-1  1.26647E-2 1.07738E-1  1.26686E-2 1.07826E-1  8.41308E-1 5.37597E-1  
3618.975000  6.69586E-1 -7.21984E-1  1.30233E-2 1.08169E-1  1.28631E-2 1.08573E-1  8.27148E-1 5.59265E-1  
3633.950000  6.50268E-1 -7.39532E-1  1.30386E-2 1.08532E-1  1.30462E-2 1.09008E-1  8.13049E-1 5.79406E-1  
3648.925000  6.30340E-1 -7.57965E-1  1.31530E-2 1.09340E-1  1.33285E-2 1.09523E-1  7.98889E-1 5.98877E-1  
3663.900000  6.09283E-1 -7.75817E-1  1.36756E-2 1.09588E-1  1.35192E-2 1.10305E-1  7.83264E-1 6.21032E-1  
3678.875000  5.88317E-1 -7.91687E-1  1.35917E-2 1.10206E-1  1.37558E-2 1.10794E-1  7.66357E-1 6.40075E-1  
3693.850000  5.64422E-1 -8.07678E-1  1.38435E-2 1.10660E-1  1.41296E-2 1.11228E-1  7.50244E-1 6.59912E-1  
3708.825000  5.4245E-1 -8.22326E-1  1.39007E-2 1.11419E-1  1.42135E-2 1.11763E-1  7.32971E-1 6.78527E-1  
3723.800000  5.20538E-1 -8.36151E-1  1.42326E-2 1.11873E-1  1.42631E-2 1.12094E-1  7.1521E-1 6.96777E-1  
3738.775000  4.97528E-1 -8.49273E-1  1.43623E-2 1.12316E-1  1.45454E-2 1.12659E-1  6.97753E-1 7.16003E-1  
3753.750000  4.74029E-1 -8.63128E-1  1.44767E-2 1.12789E-1  1.45530E-2 1.13369E-1  6.78741E-1 7.34283E-1  
3768.725000  4.50317E-1 -8.75335E-1  1.47628E-2 1.13586E-1  1.48544E-2 1.14067E-1  6.59454E-1 7.51617E-1  
3783.700000  4.26208E-1 -8.88336E-1  1.49154E-2 1.14151E-1  1.50528E-2 1.14448E-1  6.39923E-1 7.67608E-1  
3798.675000  4.01916E-1 -9.00177E-1  1.51672E-2 1.14662E-1  1.51977E-2 1.14883E-1  6.19873E-1 7.84484E-1  
3813.650000  3.77014E-1 -9.09912E-1  1.51023E-2 1.15161E-1  1.53389E-2 1.15535E-1  6.00219E-1 7.99499E-1  
3828.625000  3.51287E-1 -9.19342E-1  1.53808E-2 1.15692E-1  1.54686E-2 1.16130E-1  5.78674E-1 8.15307E-1  
3843.600000  3.26751E-1 -9.29168E-1  1.55754E-2 1.16153E-1  1.55525E-2 1.16855E-1  5.55542E-1 8.31176E-1  
3858.575000  3.01086E-1 -9.37530E-1  1.57661E-2 1.16642E-1  1.57890E-2 1.17275E-1  5.34118E-1 8.44360E-1  
3873.550000  2.75482E-1 -9.45007E-1  1.58538E-2 1.17157E-1  1.60980E-2 1.17790E-1  5.14404E-1 8.58154E-1  
3888.525000  2.50366E-1 -9.52209E-1  1.60598E-2 1.17759E-1  1.63726E-2 1.18324E-1  4.90600E-1 8.71582E-1  
3903.500000  2.23754E-1 -9.59777E-1  1.62544E-2 1.18534E-1  1.65023E-2 1.19110E-1  4.68689E-1 8.85864E-1  
3918.475000  1.98913E-1 -9.65515E-1  1.63879E-2 1.19209E-1  1.66626E-2 1.19438E-1  4.45800E-1 8.95629E-1  
3933.450000  1.72210E-1 -9.69268E-1  1.67923E-2 1.19636E-1  1.6716E-2 1.20010E-1  4.21997E-1 9.07043E-1  
3948.425000  1.47064E-1 -9.73175E-1  1.69181E-2 1.20197E-1  1.67541E-2 1.20376E-1  3.98193E-1 9.17602E-1  
3963.400000  1.19751E-1 -9.76165E-1  1.69715E-2 1.20571E-1  1.68037E-2 1.21021E-1  3.75549E-1 9.27124E-1  
3978.375000  0.92163E-1 -9.78271E-1  1.72615E-2 1.21089E-1  1.69105E-2 1.21822E-1  3.51074E-1 9.38171E-1  
3993.350000  0.65948E-1 -9.79553E-1  1.74942E-2 1.21597E-1  1.71966E-2 1.22474E-1  3.27575E-1 9.46044E-1  
4008.325000  0.39886E-1 -9.82025E-1  1.73492E-2 1.22077E-1  1.76200E-2 1.23256E-1  3.01696E-1 9.52941E-1  
4023.300000  0.12146E-1 -9.82238E-1  1.75781E-2 1.22779E-1  1.78680E-2 1.23573E-1  2.77160E-1 9.60693E-1  
4038.275000  -1.54418E-2 -9.81506E-1  1.78299E-2 1.23329E-1  1.81427E-2 1.23939E-1  2.52685E-1 9.68444E-1  
4053.250000  -4.15649E-2 -9.82727E-1  1.82113E-2 1.24183E-1  1.83486E-2 1.24427E-1  2.27844E-1 9.75219E-1  
4068.225000  -6.88476E-2 -9.81811E-1  1.84631E-2 1.24527E-1  1.83029E-2 1.24923E-1  2.03979E-1 9.80957E-1  
4083.200000  -9.44824E-2 -9.80407E-1  0.18562E-1 1.25236E-1  0.18219E-1 1.25633E-1  1.76818E-1 9.85839E-1  
4098.175000  -1.19873E-1 -9.76318E-1  0.18753E-1 1.25671E-1  0.18547E-1 1.26228E-1  1.54418E-1 9.89868E-1  
4113.150000  -1.45935E-1 -9.72778E-1  0.19004E-1 1.26243E-1  0.18753E-1 1.26945E-1  1.27258E-1 9.92675E-1  
4128.125000  -1.72851E-1 -9.68566E-1  0.19142E-1 1.26869E-1  0.18707E-1 1.27632E-1  1.00647E-1 9.95971E-1  
4143.100000  -1.98913E-1 -9.62829E-1  0.19249E-1 1.27296E-1  0.19111E-1 1.28173E-1  0.74646E-1 9.98718E-1  
4158.075000  -2.24853E-1 -9.55871E-1  0.19249E-1 1.27784E-1  0.19249E-1 1.28707E-1  0.48889E-1 9.99511E-1  
4173.050000  -2.51342E-1 -9.50134E-1  0.19447E-1 1.28456E-1  0.19622E-1 1.29211E-1  0.24169E-1 1.00152E0  
4188.025000  -2.76672E-1 -9.42016E-1  0.19813E-1 1.28875E-1  0.19737E-1 1.29768E-1  -2.38037E-3 1.00024E0  
4203.000000  -3.01757E-1 -9.34814E-1  0.19905E-1 1.29631E-1  0.19935E-1 1.30111E-1  -2.91137E-2 1E0  
4217.975000  -3.27087E-1 -9.26391E-1  0.19836E-1 1.30088E-1  0.20126E-1 1.30645E-1  -5.43212E-2 9.98535E-1  
4232.950000  -3.51867E-1 -9.18701E-1  0.20149E-1 1.30859E-1  0.20507E-1 1.31347E-1  -8.00781E-2 9.95605E-1  
4247.925000  -3.76586E-1 -9.08203E-1  0.20484E-1 1.31660E-1  0.20462E-1 1.31973E-1  -1.06018E-1 9.93896E-1  
4262.900000  -4.01367E-1 -8.98864E-1  0.2108E-1 1.32301E-1  0.20767E-1 1.3237E-1  -1.31713E-1 9.91088E-1  
4277.875000  -4.24133E-1 -8.86840E-1  0.21003E-1 1.32698E-1  0.20950E-1 1.32949E-1  -1.56311E-1 9.85656E-1  
4292.850000  -4.46716E-1 -8.75427E-1  0.21209E-1 1.33369E-1  0.20904E-1 1.33514E-1  -1.83563E-1 9.83520E-1  
4307.825000  -4.70886E-1 -8.60168E-1  0.21545E-1 1.33819E-1  0.21110E-1 1.34262E-1  -2.09960E-1 9.76470E-1  
4322.800000  -4.92187E-1 -8.48388E-1  0.21522E-1 1.34460E-1  0.21575E-1 1.34765E-1  -2.34954E-1 9.70611E-1  
4337.775000  -5.15625E-1 -8.34533E-1  0.21606E-1 1.35017E-1  0.21827E-1 1.35391E-1  -2.58636E-1 9.66613E-1  
4352.750000  -5.37841E-1 -8.18359E-1  0.21652E-1 1.35536E-1  0.21865E-1 1.35971E-1  -2.83935E-1 9.58068E-1  
4367.725000  -5.62316E-1 -8.03283E-1  0.22102E-1 1.36314E-1  0.22224E-1 1.36207E-1  -3.08776E-1 9.49401E-1  
4382.700000  -5.83618E-1 -7.89245E-1  0.22430E-1 1.36909E-1  0.22491E-1 1.36817E-1  -3.33313E-1 9.41223E-1  
4397.675000  -6.04919E-1 -7.72094E-1  0.22636E-1 1.37413E-1  0.22583E-1 1.37130E-1  -3.56750E-1 9.31274E-1  
4412.650000  -6.24816E-1 -7.56713E-1  0.23010E-1 1.38023E-1  0.22735E-1 1.37573E-1  -3.79699E-1 9.20593E-1  
4427.625000  -6.44226E-1 -7.40539E-1  0.23414E-1 1.38458E-1  0.22682E-1 1.38069E-1  -4.03930E-1 9.11499E-1  
4442.600000  -6.63696E-1 -7.23327E-1  0.23475E-1 1.39152E-1  0.22544E-1 1.38717E-1  -4.28039E-1 8.99719E-1  
4457.575000  -6.82525E-1 -7.05352E-1  0.23513E-1 1.39595E-1  0.23078E-1 1.39679E-1  -4.50439E-1 8.87054E-1  
4472.550000  -7.02026E-1 -6.8573E-1  0.23948E-1 1.40686E-1  0.23353E-1 1.40617E-1  -4.74395E-1 8.75824E-1  
4487.525000  -7.19421E-1 -6.66259E-1  0.23819E-1 1.41204E-1  0.24017E-1 1.40838E-1  -4.93988E-1 8.61389E-1  
4502.500000  -7.36572E-1 -6.45080E-1  0.24154E-1 1.41555E-1  0.24269E-1 1.41296E-1  -5.17120E-1 8.50311E-1  
4517.475000  -7.53784E-1 -6.25305E-1  0.24414E-1 1.42295E-1  0.24452E-1 1.41716E-1  -5.40069E-1 8.35632E-1  
4532.450000  -7.69897E-1 -6.04797E-1  0.24635E-1 1.43020E-1  0.24490E-1 1.42349E-1  -5.60852E-1 8.21411E-1  
4547.425000  -7.85583E-1 -5.83862E-1  0.24543E-1 1.43516E-1  0.25070E-1 1.42753E-1  -5.79650E-1 8.05786E-1  
4562.400000  -8.02002E-1 -5.61401E-1  0.24963E-1 1.44172E-1  0.25238E-1 1.43302E-1  -6.01165E-1 7.90496E-1  
4577.375000  -8.16406E-1 -5.41442E-1  0.25192E-1 1.45172E-1  0.25337E-1 1.43615E-1  -6.21917E-1 7.72735E-1  
4592.350000  -8.31909E-1 -5.17639E-1  0.25764E-1 1.45599E-1  0.25390E-1 1.44073E-1  -6.43524E-1 7.57019E-1  
4607.325000  -8.45092E-1 -4.95605E-1  0.26145E-1 1.46186E-1  0.25253E-1 1.44630E-1  -6.62384E-1 7.41180E-1  
4622.300000  -8.57971E-1 -4.71801E-1  0.26565E-1 1.46858E-1  0.25619E-1 1.45210E-1  -6.82495E-1 7.25158E-1  
4637.275000  -8.69934E-1 -4.49523E-1  0.26901E-1 1.47758E-1  0.25901E-1 1.45973E-1  -6.99279E-1 7.07580E-1  
4652.250000  -8.80004E-1 -4.26269E-1  0.27099E-1 1.48201E-1  0.26062E-1 1.46751E-1  -7.18566E-1 6.92077E-1  
4667.225000  -8.91235E-1 -4.02038E-1  0.27267E-1 1.49055E-1  0.26138E-1 1.47384E-1  -7.35778E-1 6.72363E-1  
4682.200000  -9.03015E-1 -3.77868E-1  0.27259E-1 1.49757E-1  0.26535E-1 1.47918E-1  -7.49328E-1 6.53991E-1  
4697.175000  -9.11682E-1 -3.53210E-1  0.27557E-1 1.50634E-1  0.26878E-1 1.48941E-1  -7.65991E-1 6.34582E-1  
4712.150000  -9.21508E-1 -3.28613E-1  0.28121E-1 1.51138E-1  0.27336E-1 1.49467E-1  -7.81677E-1 6.16027E-1  
4727.125000  -9.31091E-1 -3.02612E-1  0.28274E-1 1.51809E-1  0.27442E-1 1.49871E-1  -7.95776E-1 5.94116E-1  
4742.100000  -9.37866E-1 -2.77038E-1  0.28808E-1 1.52557E-1  0.27526E-1 1.50451E-1  -8.10546E-1 5.74829E-1  
4757.075000  -9.43969E-1 -2.52014E-1  0.29426E-1 1.52740E-1  0.27473E-1 1.51207E-1  -8.24768E-1 5.54443E-1  
4772.050000  -9.50653E-1 -2.27020E-1  0.29426E-1 1.53381E-1  0.27778E-1 1.52137E-1  -8.38012E-1 5.32104E-1  
4787.025000  -9.56207E-1 -2.02301E-1  0.29663E-1 1.54266E-1  0.27992E-1 1.53633E-1  -8.52478E-1 5.12085E-1  
4802.000000  -9.61059E-1 -1.76025E-1  0.30242E-1 1.55357E-1  0.28968E-1 1.54304E-1  -8.64502E-1 4.89624E-1  
4816.975000  -9.66003E-1 -1.49475E-1  0.30464E-1 1.56059E-1  0.29525E-1 1.55128E-1  -8.75488E-1 4.67468E-1  
4831.950000  -9.69482E-1 -1.23107E-1  0.30754E-1 1.57051E-1  0.29800E-1 1.55685E-1  -8.86657E-1 4.45495E-1  
4846.925000  -9.72351E-1 -9.74731E-2  0.31486E-1 1.57836E-1  0.30563E-1 1.56303E-1  -8.96484E-1 4.23767E-1  
4861.900000  -9.73388E-1 -7.03735E-2  0.31875E-1 1.58470E-1  0.30761E-1 1.56616E-1  -9.07959E-1 4.00146E-1  
4876.875000  -9.74487E-1 -4.54711E-2  0.32119E-1 1.59271E-1  0.31120E-1 1.57630E-1  -9.16137E-1 3.77441E-1  
4891.850000  -9.74853E-1 -1.77002E-2  0.32623E-1 1.60003E-1  0.31364E-1 1.58424E-1  -9.24682E-1 3.55712E-1  
4906.825000  -9.75219E-1 0.07812E-1  0.32966E-1 1.61079E-1  0.31692E-1 1.59530E-1  -9.33227E-1 3.32153E-1  
4921.800000  -9.74182E-1 0.35308E-1  0.33454E-1 1.61666E-1  0.32196E-1 1.60476E-1  -9.4104E-1 3.08532E-1  
4936.775000  -9.74700E-1 0.61981E-1  0.34080E-1 1.62902E-1  0.32943E-1 1.61560E-1  -9.48333E-1 2.84179E-1  
4951.750000  -9.71069E-1 0.88867E-1  0.34645E-1 1.63719E-1  0.33721E-1 1.62704E-1  -9.55322E-1 2.60803E-1  
4966.725000  -9.68444E-1 1.13647E-1  0.35362E-1 1.64657E-1  0.34210E-1 1.63642E-1  -9.60632E-1 2.36877E-1  
4981.700000  -9.65087E-1 1.40380E-1  0.35949E-1 1.65718E-1  0.35018E-1 1.63650E-1  -9.65332E-1 2.13684E-1  
4996.675000  -9.59899E-1 1.65954E-1  0.36644E-1 1.66252E-1  0.35614E-1 1.64207E-1  -9.69482E-1 1.8927E-1  
5011.650000  -9.55261E-1 1.91955E-1  0.37200E-1 1.67503E-1  0.36026E-1 1.65931E-1  -9.74487E-1 1.65466E-1  
5026.625000  -9.48852E-1 2.17651E-1  0.37605E-1 1.68922E-1  0.37170E-1 1.66717E-1  -9.77417E-1 1.40869E-1  
5041.600000  -9.42504E-1 2.44751E-1  0.39062E-1 1.69433E-1  0.37544E-1 1.67663E-1  -9.80407E-1 1.16149E-1  
5056.575000  -9.34753E-1 2.70629E-1  0.39398E-1 1.70890E-1  0.38192E-1 1.68426E-1  -9.81872E-1 0.93872E-1  
5071.550000  -9.25659E-1 2.94433E-1  0.39909E-1 1.72096E-1  0.39176E-1 1.69738E-1  -9.81994E-1 0.69458E-1  
5086.525000  -9.17053E-1 3.20312E-1  0.41221E-1 1.73294E-1  0.39436E-1 1.70379E-1  -9.82696E-1 0.45410E-1  
5101.500000  -9.06005E-1 3.43658E-1  0.41786E-1 1.7379E-1  0.40573E-1 1.72073E-1  -9.83276E-1 0.21270E-1  
5116.475000  -8.97308E-1 3.68103E-1  0.42404E-1 1.74774E-1  0.41473E-1 1.73919E-1  -9.83612E-1 -1.92260E-3  
5131.450000  -8.85864E-1 3.92700E-1  0.43808E-1 1.76384E-1  0.42709E-1 1.74636E-1  -9.82421E-1 -2.69165E-2  
5146.425000  -8.73413E-1 4.16198E-1  0.44883E-1 1.77650E-1  0.43899E-1 1.76132E-1  -9.80651E-1 -5.10253E-2  
5161.400000  -8.61084E-1 4.39941E-1  0.46638E-1 1.79138E-1  0.45158E-1 1.77375E-1  -9.77539E-1 -7.53173E-2  
5176.375000  -8.48144E-1 4.62524E-1  0.47401E-1 1.80465E-1  0.46905E-1 1.78962E-1  -9.74487E-1 -9.82666E-2  
5191.350000  -8.31909E-1 4.86206E-1  0.49331E-1 1.81587E-1  0.48248E-1 1.79443E-1  -9.71069E-1 -1.2146E-1  
5206.325000  -8.17627E-1 5.06591E-1  0.50743E-1 1.82968E-1  0.50590E-1 1.81579E-1  -9.67285E-1 -1.46301E-1  
5221.300000  -8.03161E-1 5.29418E-1  0.52940E-1 1.84837E-1  0.51841E-1 1.82785E-1  -9.63806E-1 -1.68273E-1  
5236.275000  -7.86499E-1 5.50781E-1  0.55007E-1 1.86981E-1  0.52543E-1 1.84967E-1  -9.55810E-1 -1.90734E-1  
5251.250000  -7.69714E-1 5.71472E-1  0.56953E-1 1.88133E-1  0.55122E-1 1.85928E-1  -9.50561E-1 -2.12707E-1  
5266.225000  -7.51953E-1 5.91796E-1  0.59036E-1 1.90292E-1  0.58448E-1 1.88201E-1  -9.43725E-1 -2.34741E-1  
5281.200000  -7.33520E-1 6.11755E-1  0.62118E-1 1.91406E-1  0.60791E-1 1.89575E-1  -9.35546E-1 -2.56347E-1  
5296.175000  -7.13317E-1 6.28723E-1  0.64865E-1 1.93359E-1  0.64407E-1 1.91421E-1  -9.26635E-1 -2.76855E-1  
5311.150000  -6.93054E-1 6.46850E-1  0.69259E-1 1.94305E-1  0.67855E-1 1.92550E-1  -9.16381E-1 -2.97424E-1  
5326.125000  -6.72180E-1 6.65222E-1  0.73211E-1 1.96456E-1  0.71701E-1 1.94274E-1  -9.05944E-1 -3.17199E-1  
5341.100000  -6.50756E-1 6.80114E-1  0.77697E-1 1.97769E-1  0.76828E-1 1.95892E-1  -8.95202E-1 -3.37524E-1  
5356.075000  -6.27319E-1 6.93908E-1  0.83526E-1 1.99005E-1  0.81039E-1 1.96960E-1  -8.83239E-1 -3.56323E-1  
5371.050000  -6.04187E-1 7.05871E-1  0.89325E-1 1.99096E-1  0.86990E-1 1.97036E-1  -8.70422E-1 -3.73657E-1  
5386.025000  -5.79956E-1 7.19299E-1  0.96618E-1 1.99249E-1  0.94467E-1 1.97418E-1  -8.54431E-1 -3.91113E-1  
5401.000000  -5.55908E-1 7.28515E-1  1.04354E-1 1.98501E-1  1.02294E-1 1.96456E-1  -8.36975E-1 -4.08874E-1  
5415.975000  -5.32409E-1 7.33886E-1  1.13403E-1 1.96289E-1  1.10916E-1 1.94793E-1  -8.16833E-1 -4.27612E-1  
5430.950000  -5.10620E-1 7.38525E-1  1.22695E-1 1.91772E-1  1.20193E-1 1.90246E-1  -7.96142E-1 -4.45617E-1  
5445.925000  -4.87670E-1 7.41088E-1  1.32095E-1 1.83975E-1  1.29806E-1 1.82495E-1  -7.74108E-1 -4.62280E-1  
5460.900000  -4.6875E-1 7.38525E-1  1.40609E-1 1.74240E-1  1.38275E-1 1.73477E-1  -7.46704E-1 -4.82849E-1  
5475.875000  -4.55871E-1 7.37121E-1  1.48284E-1 1.61254E-1  1.46102E-1 1.60339E-1  -7.20581E-1 -5.05493E-1  
5490.850000  -4.45861E-1 7.35412E-1  1.51657E-1 1.45782E-1  1.49642E-1 1.44348E-1  -6.92749E-1 -5.31982E-1  
5505.825000  -4.38903E-1 7.36267E-1  1.50802E-1 1.28372E-1  1.49017E-1 1.26953E-1  -6.67602E-1 -5.61523E-1  
5520.800000  -4.35791E-1 7.42736E-1  1.45324E-1 1.11969E-1  1.43005E-1 1.11801E-1  -6.40808E-1 -5.93505E-1  
5535.775000  -4.33288E-1 7.52868E-1  1.35025E-1 0.98526E-1  1.32141E-1 0.97534E-1  -6.21337E-1 -6.25E-1  
5550.750000  -4.27917E-1 7.67700E-1  1.22039E-1 8.8974E-2  1.19995E-1 8.86077E-2  -6.04064E-1 -6.58691E-1  
5565.725000  -4.19281E-1 7.86804E-1  1.08810E-1 8.30307E-2  1.06597E-1 8.30764E-2  -5.91247E-1 -6.88110E-1  
5580.700000  -4.07226E-1 8.05633E-1  9.59396E-2 8.13140E-2  9.42001E-2 8.12377E-2  -5.78308E-1 -7.17529E-1  
5595.675000  -3.90808E-1 8.26355E-1  8.41598E-2 8.18710E-2  8.27713E-2 8.17947E-2  -5.68237E-1 -7.40356E-1  
5610.650000  -3.71337E-1 8.44970E-1  7.41958E-2 8.43734E-2  7.29599E-2 8.41903E-2  -5.56091E-1 -7.61962E-1  
5625.625000  -3.51196E-1 8.63098E-1  6.62231E-2 8.78982E-2  6.47964E-2 8.73794E-2  -5.42968E-1 -7.78442E-1  
5640.600000  -3.27941E-1 8.78601E-1  5.96008E-2 9.21173E-2  5.84716E-2 9.16137E-2  -5.29724E-1 -7.97424E-1  
5655.575000  -3.03466E-1 8.93798E-1  5.44052E-2 9.62905E-2  5.34439E-2 9.54361E-2  -5.16723E-1 -8.14514E-1  
5670.550000  -2.77435E-1 9.06860E-1  5.02777E-2 1.00219E-1  4.94651E-2 9.95979E-2  -5.00915E-1 -8.29895E-1  
5685.525000  -2.51983E-1 9.18121E-1  4.68826E-2 1.04217E-1  4.57458E-2 1.03309E-1  -4.85076E-1 -8.41400E-1  
5700.500000  -2.25311E-1 9.28405E-1  4.42886E-2 1.08398E-1  4.28466E-2 1.07132E-1  -4.65148E-1 -8.56506E-1  
5715.475000  -1.98913E-1 9.37042E-1  4.21066E-2 1.12075E-1  4.06570E-2 1.10603E-1  -4.47753E-1 -8.67858E-1  
5730.450000  -1.73980E-1 9.43939E-1  4.07638E-2 1.15348E-1  3.92684E-2 1.14349E-1  -4.30847E-1 -8.82690E-1  
5745.425000  -1.46698E-1 9.49127E-1  3.93676E-2 1.18499E-1  3.78875E-2 1.1763E-1  -4.10522E-1 -8.93432E-1  
5760.400000  -1.18957E-1 9.56054E-1  3.81546E-2 1.21871E-1  3.69567E-2 1.20582E-1  -3.88610E-1 -9.02404E-1  
5775.375000  -9.06372E-2 9.57366E-1  3.70903E-2 1.24240E-1  3.60908E-2 1.23203E-1  -3.68957E-1 -9.13330E-1  
5790.350000  -6.47888E-2 9.61120E-1  0.36369E-1 1.26663E-1  0.35247E-1 1.25320E-1  -3.50891E-1 -9.20898E-1  
5805.325000  -3.78723E-2 9.64172E-1  0.35659E-1 1.29081E-1  0.34668E-1 1.27609E-1  -3.32397E-1 -9.29687E-1  
5820.300000  -1.08032E-2 9.66827E-1  0.35835E-1 1.31568E-1  0.34271E-1 1.30294E-1  -3.08532E-1 -9.40246E-1  
5835.275000  0.14801E-1 9.67254E-1  0.3508E-1 1.33750E-1  0.34057E-1 1.32156E-1  -2.88574E-1 -9.46106E-1  
5850.250000  0.42327E-1 9.67132E-1  0.35003E-1 1.35528E-1  0.33607E-1 1.34155E-1  -2.66571E-1 -9.51385E-1  
5865.225000  0.67688E-1 9.65820E-1  0.35041E-1 1.38015E-1  0.33309E-1 1.36413E-1  -2.40966E-1 -9.60510E-1  
5880.200000  0.95703E-1 9.62951E-1  0.3508E-1 1.39282E-1  0.33699E-1 1.38183E-1  -2.21099E-1 -9.65606E-1  
5895.175000  1.20330E-1 9.58709E-1  0.34996E-1 1.40991E-1  0.33546E-1 1.40113E-1  -1.97631E-1 -9.72045E-1  
5910.150000  1.45843E-1 9.55841E-1  0.35034E-1 1.42456E-1  0.33592E-1 1.41685E-1  -1.77337E-1 -9.78118E-1  
5925.125000  1.71600E-1 9.51080E-1  0.34477E-1 1.45385E-1  0.33363E-1 1.43325E-1  -1.49688E-1 -9.78118E-1  
5940.100000  1.98272E-1 9.46685E-1  0.34439E-1 1.46400E-1  0.33348E-1 1.44340E-1  -1.27716E-1 -9.81475E-1  
5955.075000  2.24548E-1 9.41101E-1  0.35049E-1 1.47361E-1  0.33821E-1 1.46209E-1  -1.06750E-1 -9.88220E-1  
5970.050000  2.49939E-1 9.34631E-1  0.34851E-1 1.49391E-1  0.33599E-1 1.47979E-1  -8.10852E-2 -9.88678E-1  
5985.025000  2.75299E-1 9.25933E-1  0.34530E-1 1.50825E-1  0.33706E-1 1.49086E-1  -5.76477E-2 -9.87396E-1  
6000.000000  3.01696E-1 9.20654E-1  0.35530E-1 1.52175E-1  0.33874E-1 1.50131E-1  -3.34777E-2 -9.89288E-1  
