<Qucs Schematic 0.0.20>
<Properties>
  <View=0,-315,1330,1326,0.683014,0,0>
  <Grid=10,10,1>
  <DataSet=diplexer-ghz.dat>
  <DataDisplay=diplexer-ghz.dpl>
  <OpenDisplay=1>
  <Script=diplexer-ghz.m>
  <RunScript=0>
  <showFrame=0>
  <FrameText0=Title>
  <FrameText1=Drawn By:>
  <FrameText2=Date:>
  <FrameText3=Revision:>
</Properties>
<Symbol>
</Symbol>
<Components>
  <GND * 5 860 810 0 0 0 0>
  <Pac P2 1 1220 720 18 -26 0 1 "1" 1 "50 Ohm" 1 "-20 dBm" 0 "2400 MHz" 0 "26.85" 0>
  <GND *1 5 1220 810 0 0 0 0>
  <Pac P3 1 1160 730 -94 -26 1 1 "3" 1 "50 Ohm" 1 "-20 dBm" 0 "2400 MHz" 0 "26.85" 0>
  <GND * 5 1160 810 0 0 0 0>
  <GND * 5 990 810 0 0 0 0>
  <.SP SP1 1 260 710 0 67 0 0 "log" 1 "200 MHz" 1 "3000 MHz" 1 "1000" 1 "no" 0 "1" 0 "2" 0 "no" 0 "no" 0>
  <Eqn Eqn1 1 280 910 -28 15 0 0 "S21_dB=dB(S[2,1])" 1 "S31_dB=dB(S[3,1])" 1 "S32_dB=dB(S[3,2])" 1 "S11_dB=dB(S[1,1])" 1 "yes" 0>
  <GND *2 5 720 750 0 0 0 0>
  <Pac P1 1 570 710 -94 -26 1 1 "2" 1 "50 Ohm" 1 "-20 dBm" 0 "2400 MHz" 0 "26.85" 0>
  <GND * 5 570 810 0 0 0 0>
  <C C2 2 720 630 -26 -55 1 0 "1.8 pF" 1 "" 0 "neutral" 0>
  <L L3 0 670 690 -75 -26 0 3 "4.7 nH" 1 "" 0>
  <L L4 0 770 690 -75 -26 0 3 "4.7 nH" 1 "" 0>
  <L L1 0 940 750 -75 -26 0 3 "4.7 nH" 1 "" 0>
  <L L2 0 1040 750 -75 -26 0 3 "4.7 nH" 1 "" 0>
  <C C1 2 990 690 -26 -55 1 0 "1.8 pF" 1 "" 0 "neutral" 0>
  <SPfile diplexer 1 860 660 -26 -68 1 2 "dpx202700dt-4035b5.s3p" 0 "rectangular" 0 "linear" 0 "open" 0 "3" 0>
</Components>
<Wires>
  <860 720 860 810 "" 0 0 0 "">
  <890 630 1220 630 "" 0 0 0 "">
  <1220 630 1220 690 "" 0 0 0 "">
  <1220 750 1220 810 "" 0 0 0 "">
  <1160 760 1160 810 "" 0 0 0 "">
  <1160 690 1160 700 "" 0 0 0 "">
  <890 690 940 690 "" 0 0 0 "">
  <1040 690 1160 690 "" 0 0 0 "">
  <940 690 940 720 "" 0 0 0 "">
  <940 780 940 800 "" 0 0 0 "">
  <940 800 990 800 "" 0 0 0 "">
  <990 800 990 810 "" 0 0 0 "">
  <750 630 770 630 "" 0 0 0 "">
  <770 630 830 630 "" 0 0 0 "">
  <670 630 690 630 "" 0 0 0 "">
  <670 630 670 660 "" 0 0 0 "">
  <670 720 670 740 "" 0 0 0 "">
  <670 740 720 740 "" 0 0 0 "">
  <720 740 720 750 "" 0 0 0 "">
  <570 630 670 630 "" 0 0 0 "">
  <570 630 570 680 "" 0 0 0 "">
  <570 740 570 810 "" 0 0 0 "">
  <720 740 770 740 "" 0 0 0 "">
  <770 720 770 740 "" 0 0 0 "">
  <770 630 770 660 "" 0 0 0 "">
  <990 800 1040 800 "" 0 0 0 "">
  <1040 780 1040 800 "" 0 0 0 "">
  <1040 690 1040 720 "" 0 0 0 "">
  <1020 690 1040 690 "" 0 0 0 "">
  <940 690 960 690 "" 0 0 0 "">
</Wires>
<Diagrams>
  <Rect 390 476 680 346 3 #c0c0c0 1 00 1 8e+08 2e+08 3e+09 1 -27.1892 5 1.64295 1 -1 0.5 1 315 0 225 "" "" "" "">
	<"S21_dB" #ff0000 2 3 0 0 0>
	  <Mkr 1.69783e+09 104 -464 3 0 0>
	  <Mkr 2.20248e+09 556 -73 3 0 0>
	  <Mkr 2.45473e+09 768 -112 3 0 0>
	<"S31_dB" #005500 2 3 0 0 0>
	  <Mkr 2.19652e+09 355 -481 3 0 0>
	  <Mkr 2.44808e+09 616 -461 3 0 0>
	  <Mkr 1.70244e+09 45 -285 3 0 0>
	  <Mkr 1.78757e+09 776 -291 3 0 0>
  </Rect>
</Diagrams>
<Paintings>
</Paintings>
