!Murata Part Number: GQM1885C2A4R0BB01
!These Parameters are Measured in Series Mode Connection
!       o--ll--o
!Port1            Port2
!       o------o
!Operation Temp=25[C], DC Bias Voltage=0[V]
!Freq. Start=100[MHz] Stop=8500[MHz] 401[Steps]
# MHz S RI R 50
!Freq.(MHz) S11(Real) S11(Imag) S21(Real) S21(Imag) S12(Real) S12(Imag) S22(Real) S22(Imag)
100.000000 0.9404243 -0.2365104 0.0595757 0.2365104 0.0595757 0.2365104 0.9404243 -0.2365104
121.000000 0.9150710 -0.2785477 0.0849290 0.2785477 0.0849290 0.2785477 0.9150710 -0.2785477
142.000000 0.8865857 -0.3168304 0.1134143 0.3168304 0.1134143 0.3168304 0.8865857 -0.3168304
163.000000 0.8556445 -0.3511418 0.1443555 0.3511418 0.1443555 0.3511418 0.8556445 -0.3511418
184.000000 0.8229076 -0.3813990 0.1770924 0.3813990 0.1770924 0.3813990 0.8229076 -0.3813990
205.000000 0.7889928 -0.4076355 0.2110072 0.4076355 0.2110072 0.4076355 0.7889928 -0.4076355
226.000000 0.7544577 -0.4299801 0.2455423 0.4299801 0.2455423 0.4299801 0.7544577 -0.4299801
247.000000 0.7197885 -0.4486340 0.2802115 0.4486340 0.2802115 0.4486340 0.7197885 -0.4486340
268.000000 0.6853952 -0.4638495 0.3146048 0.4638495 0.3146048 0.4638495 0.6853952 -0.4638495
289.000000 0.6516126 -0.4759101 0.3483874 0.4759101 0.3483874 0.4759101 0.6516126 -0.4759101
310.000000 0.6187046 -0.4851148 0.3812954 0.4851148 0.3812954 0.4851148 0.6187046 -0.4851148
331.000000 0.5868706 -0.4917648 0.4131294 0.4917648 0.4131294 0.4917648 0.5868706 -0.4917648
352.000000 0.5562539 -0.4961535 0.4437461 0.4961535 0.4437461 0.4961535 0.5562539 -0.4961535
373.000000 0.5269500 -0.4985600 0.4730500 0.4985600 0.4730500 0.4985600 0.5269500 -0.4985600
394.000000 0.4990144 -0.4992444 0.5009856 0.4992444 0.5009856 0.4992444 0.4990144 -0.4992444
415.000000 0.4724709 -0.4984453 0.5275291 0.4984453 0.5275291 0.4984453 0.4724709 -0.4984453
436.000000 0.4473175 -0.4963787 0.5526825 0.4963787 0.5526825 0.4963787 0.4473175 -0.4963787
457.000000 0.4235329 -0.4932380 0.5764671 0.4932380 0.5764671 0.4932380 0.4235329 -0.4932380
478.000000 0.4010814 -0.4891949 0.5989186 0.4891949 0.5989186 0.4891949 0.4010814 -0.4891949
499.000000 0.3799166 -0.4844006 0.6200834 0.4844006 0.6200834 0.4844006 0.3799166 -0.4844006
520.000000 0.3599851 -0.4789876 0.6400149 0.4789876 0.6400149 0.4789876 0.3599851 -0.4789876
541.000000 0.3412288 -0.4730708 0.6587712 0.4730708 0.6587712 0.4730708 0.3412288 -0.4730708
562.000000 0.3235874 -0.4667499 0.6764126 0.4667499 0.6764126 0.4667499 0.3235874 -0.4667499
583.000000 0.3069998 -0.4601108 0.6930002 0.4601108 0.6930002 0.4601108 0.3069998 -0.4601108
604.000000 0.2914052 -0.4532271 0.7085948 0.4532271 0.7085948 0.4532271 0.2914052 -0.4532271
625.000000 0.2767439 -0.4461617 0.7232561 0.4461617 0.7232561 0.4461617 0.2767439 -0.4461617
646.000000 0.2629585 -0.4389682 0.7370415 0.4389682 0.7370415 0.4389682 0.2629585 -0.4389682
667.000000 0.2499936 -0.4316919 0.7500064 0.4316919 0.7500064 0.4316919 0.2499936 -0.4316919
688.000000 0.2377966 -0.4243713 0.7622034 0.4243713 0.7622034 0.4243713 0.2377966 -0.4243713
709.000000 0.2263176 -0.4170385 0.7736824 0.4170385 0.7736824 0.4170385 0.2263176 -0.4170385
730.000000 0.2155096 -0.4097204 0.7844904 0.4097204 0.7844904 0.4097204 0.2155096 -0.4097204
751.000000 0.2053283 -0.4024395 0.7946717 0.4024395 0.7946717 0.4024395 0.2053283 -0.4024395
772.000000 0.1957323 -0.3952143 0.8042677 0.3952143 0.8042677 0.3952143 0.1957323 -0.3952143
793.000000 0.1866828 -0.3880600 0.8133172 0.3880600 0.8133172 0.3880600 0.1866828 -0.3880600
814.000000 0.1781438 -0.3809889 0.8218562 0.3809889 0.8218562 0.3809889 0.1781438 -0.3809889
835.000000 0.1700816 -0.3740109 0.8299184 0.3740109 0.8299184 0.3740109 0.1700816 -0.3740109
856.000000 0.1624647 -0.3671339 0.8375353 0.3671339 0.8375353 0.3671339 0.1624647 -0.3671339
877.000000 0.1552641 -0.3603639 0.8447359 0.3603639 0.8447359 0.3603639 0.1552641 -0.3603639
898.000000 0.1484527 -0.3537056 0.8515473 0.3537056 0.8515473 0.3537056 0.1484527 -0.3537056
919.000000 0.1420054 -0.3471622 0.8579946 0.3471622 0.8579946 0.3471622 0.1420054 -0.3471622
940.000000 0.1358986 -0.3407361 0.8641014 0.3407361 0.8641014 0.3407361 0.1358986 -0.3407361
961.000000 0.1301108 -0.3344286 0.8698892 0.3344286 0.8698892 0.3344286 0.1301108 -0.3344286
982.000000 0.1246218 -0.3282403 0.8753782 0.3282403 0.8753782 0.3282403 0.1246218 -0.3282403
1003.000000 0.1194129 -0.3221712 0.8805871 0.3221712 0.8805871 0.3221712 0.1194129 -0.3221712
1024.000000 0.1144666 -0.3162208 0.8855334 0.3162208 0.8855334 0.3162208 0.1144666 -0.3162208
1045.000000 0.1097668 -0.3103881 0.8902332 0.3103881 0.8902332 0.3103881 0.1097668 -0.3103881
1066.000000 0.1052986 -0.3046718 0.8947014 0.3046718 0.8947014 0.3046718 0.1052986 -0.3046718
1087.000000 0.1010479 -0.2990702 0.8989521 0.2990702 0.8989521 0.2990702 0.1010479 -0.2990702
1108.000000 0.0970018 -0.2935816 0.9029982 0.2935816 0.9029982 0.2935816 0.0970018 -0.2935816
1129.000000 0.0931481 -0.2882038 0.9068519 0.2882038 0.9068519 0.2882038 0.0931481 -0.2882038
1150.000000 0.0894756 -0.2829348 0.9105244 0.2829348 0.9105244 0.2829348 0.0894756 -0.2829348
1171.000000 0.0859739 -0.2777723 0.9140261 0.2777723 0.9140261 0.2777723 0.0859739 -0.2777723
1192.000000 0.0826331 -0.2727138 0.9173669 0.2727138 0.9173669 0.2727138 0.0826331 -0.2727138
1213.000000 0.0794442 -0.2677571 0.9205558 0.2677571 0.9205558 0.2677571 0.0794442 -0.2677571
1234.000000 0.0763986 -0.2628995 0.9236014 0.2628995 0.9236014 0.2628995 0.0763986 -0.2628995
1255.000000 0.0734884 -0.2581387 0.9265116 0.2581387 0.9265116 0.2581387 0.0734884 -0.2581387
1276.000000 0.0707061 -0.2534722 0.9292939 0.2534722 0.9292939 0.2534722 0.0707061 -0.2534722
1297.000000 0.0680449 -0.2488976 0.9319551 0.2488976 0.9319551 0.2488976 0.0680449 -0.2488976
1318.000000 0.0654983 -0.2444123 0.9345017 0.2444123 0.9345017 0.2444123 0.0654983 -0.2444123
1339.000000 0.0630602 -0.2400140 0.9369398 0.2400140 0.9369398 0.2400140 0.0630602 -0.2400140
1360.000000 0.0607248 -0.2357002 0.9392752 0.2357002 0.9392752 0.2357002 0.0607248 -0.2357002
1381.000000 0.0584869 -0.2314688 0.9415131 0.2314688 0.9415131 0.2314688 0.0584869 -0.2314688
1402.000000 0.0563415 -0.2273173 0.9436585 0.2273173 0.9436585 0.2273173 0.0563415 -0.2273173
1423.000000 0.0542838 -0.2232434 0.9457162 0.2232434 0.9457162 0.2232434 0.0542838 -0.2232434
1444.000000 0.0523096 -0.2192452 0.9476904 0.2192452 0.9476904 0.2192452 0.0523096 -0.2192452
1465.000000 0.0504146 -0.2153202 0.9495854 0.2153202 0.9495854 0.2153202 0.0504146 -0.2153202
1486.000000 0.0485949 -0.2114666 0.9514051 0.2114666 0.9514051 0.2114666 0.0485949 -0.2114666
1507.000000 0.0468470 -0.2076822 0.9531530 0.2076822 0.9531530 0.2076822 0.0468470 -0.2076822
1528.000000 0.0451673 -0.2039650 0.9548327 0.2039650 0.9548327 0.2039650 0.0451673 -0.2039650
1549.000000 0.0435526 -0.2003132 0.9564474 0.2003132 0.9564474 0.2003132 0.0435526 -0.2003132
1570.000000 0.0420000 -0.1967248 0.9580000 0.1967248 0.9580000 0.1967248 0.0420000 -0.1967248
1591.000000 0.0405064 -0.1931981 0.9594936 0.1931981 0.9594936 0.1931981 0.0405064 -0.1931981
1612.000000 0.0390692 -0.1897312 0.9609308 0.1897312 0.9609308 0.1897312 0.0390692 -0.1897312
1633.000000 0.0376859 -0.1863225 0.9623141 0.1863225 0.9623141 0.1863225 0.0376859 -0.1863225
1654.000000 0.0363539 -0.1829702 0.9636461 0.1829702 0.9636461 0.1829702 0.0363539 -0.1829702
1675.000000 0.0350711 -0.1796729 0.9649289 0.1796729 0.9649289 0.1796729 0.0350711 -0.1796729
1696.000000 0.0338353 -0.1764288 0.9661647 0.1764288 0.9661647 0.1764288 0.0338353 -0.1764288
1717.000000 0.0326444 -0.1732366 0.9673556 0.1732366 0.9673556 0.1732366 0.0326444 -0.1732366
1738.000000 0.0314965 -0.1700947 0.9685035 0.1700947 0.9685035 0.1700947 0.0314965 -0.1700947
1759.000000 0.0303898 -0.1670017 0.9696102 0.1670017 0.9696102 0.1670017 0.0303898 -0.1670017
1780.000000 0.0293225 -0.1639563 0.9706775 0.1639563 0.9706775 0.1639563 0.0293225 -0.1639563
1801.000000 0.0282930 -0.1609571 0.9717070 0.1609571 0.9717070 0.1609571 0.0282930 -0.1609571
1822.000000 0.0272998 -0.1580028 0.9727002 0.1580028 0.9727002 0.1580028 0.0272998 -0.1580028
1843.000000 0.0263413 -0.1550922 0.9736587 0.1550922 0.9736587 0.1550922 0.0263413 -0.1550922
1864.000000 0.0254162 -0.1522240 0.9745838 0.1522240 0.9745838 0.1522240 0.0254162 -0.1522240
1885.000000 0.0245232 -0.1493971 0.9754768 0.1493971 0.9754768 0.1493971 0.0245232 -0.1493971
1906.000000 0.0236609 -0.1466104 0.9763391 0.1466104 0.9763391 0.1466104 0.0236609 -0.1466104
1927.000000 0.0228282 -0.1438627 0.9771718 0.1438627 0.9771718 0.1438627 0.0228282 -0.1438627
1948.000000 0.0220239 -0.1411530 0.9779761 0.1411530 0.9779761 0.1411530 0.0220239 -0.1411530
1969.000000 0.0212470 -0.1384803 0.9787530 0.1384803 0.9787530 0.1384803 0.0212470 -0.1384803
1990.000000 0.0204964 -0.1358435 0.9795036 0.1358435 0.9795036 0.1358435 0.0204964 -0.1358435
2011.000000 0.0197711 -0.1332417 0.9802289 0.1332417 0.9802289 0.1332417 0.0197711 -0.1332417
2032.000000 0.0190702 -0.1306740 0.9809298 0.1306740 0.9809298 0.1306740 0.0190702 -0.1306740
2053.000000 0.0183928 -0.1281394 0.9816072 0.1281394 0.9816072 0.1281394 0.0183928 -0.1281394
2074.000000 0.0177381 -0.1256370 0.9822619 0.1256370 0.9822619 0.1256370 0.0177381 -0.1256370
2095.000000 0.0171052 -0.1231661 0.9828948 0.1231661 0.9828948 0.1231661 0.0171052 -0.1231661
2116.000000 0.0164934 -0.1207258 0.9835066 0.1207258 0.9835066 0.1207258 0.0164934 -0.1207258
2137.000000 0.0159020 -0.1183152 0.9840980 0.1183152 0.9840980 0.1183152 0.0159020 -0.1183152
2158.000000 0.0153301 -0.1159337 0.9846699 0.1159337 0.9846699 0.1159337 0.0153301 -0.1159337
2179.000000 0.0147773 -0.1135803 0.9852227 0.1135803 0.9852227 0.1135803 0.0147773 -0.1135803
2200.000000 0.0142427 -0.1112545 0.9857573 0.1112545 0.9857573 0.1112545 0.0142427 -0.1112545
2221.000000 0.0137258 -0.1089555 0.9862742 0.1089555 0.9862742 0.1089555 0.0137258 -0.1089555
2242.000000 0.0132261 -0.1066827 0.9867739 0.1066827 0.9867739 0.1066827 0.0132261 -0.1066827
2263.000000 0.0127429 -0.1044352 0.9872571 0.1044352 0.9872571 0.1044352 0.0127429 -0.1044352
2284.000000 0.0122757 -0.1022126 0.9877243 0.1022126 0.9877243 0.1022126 0.0122757 -0.1022126
2305.000000 0.0118241 -0.1000141 0.9881759 0.1000141 0.9881759 0.1000141 0.0118241 -0.1000141
2326.000000 0.0113874 -0.0978392 0.9886126 0.0978392 0.9886126 0.0978392 0.0113874 -0.0978392
2347.000000 0.0109654 -0.0956873 0.9890346 0.0956873 0.9890346 0.0956873 0.0109654 -0.0956873
2368.000000 0.0105574 -0.0935577 0.9894426 0.0935577 0.9894426 0.0935577 0.0105574 -0.0935577
2389.000000 0.0101630 -0.0914500 0.9898370 0.0914500 0.9898370 0.0914500 0.0101630 -0.0914500
2410.000000 0.0097819 -0.0893635 0.9902181 0.0893635 0.9902181 0.0893635 0.0097819 -0.0893635
2431.000000 0.0094137 -0.0872978 0.9905863 0.0872978 0.9905863 0.0872978 0.0094137 -0.0872978
2452.000000 0.0090580 -0.0852523 0.9909420 0.0852523 0.9909420 0.0852523 0.0090580 -0.0852523
2473.000000 0.0087143 -0.0832266 0.9912857 0.0832266 0.9912857 0.0832266 0.0087143 -0.0832266
2494.000000 0.0083824 -0.0812201 0.9916176 0.0812201 0.9916176 0.0812201 0.0083824 -0.0812201
2515.000000 0.0080620 -0.0792324 0.9919380 0.0792324 0.9919380 0.0792324 0.0080620 -0.0792324
2536.000000 0.0077526 -0.0772630 0.9922474 0.0772630 0.9922474 0.0772630 0.0077526 -0.0772630
2557.000000 0.0074541 -0.0753115 0.9925459 0.0753115 0.9925459 0.0753115 0.0074541 -0.0753115
2578.000000 0.0071661 -0.0733774 0.9928339 0.0733774 0.9928339 0.0733774 0.0071661 -0.0733774
2599.000000 0.0068882 -0.0714603 0.9931118 0.0714603 0.9931118 0.0714603 0.0068882 -0.0714603
2620.000000 0.0066203 -0.0695598 0.9933797 0.0695598 0.9933797 0.0695598 0.0066203 -0.0695598
2641.000000 0.0063621 -0.0676755 0.9936379 0.0676755 0.9936379 0.0676755 0.0063621 -0.0676755
2662.000000 0.0061134 -0.0658070 0.9938866 0.0658070 0.9938866 0.0658070 0.0061134 -0.0658070
2683.000000 0.0058738 -0.0639539 0.9941262 0.0639539 0.9941262 0.0639539 0.0058738 -0.0639539
2704.000000 0.0056431 -0.0621158 0.9943569 0.0621158 0.9943569 0.0621158 0.0056431 -0.0621158
2725.000000 0.0054212 -0.0602924 0.9945788 0.0602924 0.9945788 0.0602924 0.0054212 -0.0602924
2746.000000 0.0052078 -0.0584834 0.9947922 0.0584834 0.9947922 0.0584834 0.0052078 -0.0584834
2767.000000 0.0050027 -0.0566883 0.9949973 0.0566883 0.9949973 0.0566883 0.0050027 -0.0566883
2788.000000 0.0048058 -0.0549068 0.9951942 0.0549068 0.9951942 0.0549068 0.0048058 -0.0549068
2809.000000 0.0046167 -0.0531387 0.9953833 0.0531387 0.9953833 0.0531387 0.0046167 -0.0531387
2830.000000 0.0044354 -0.0513836 0.9955646 0.0513836 0.9955646 0.0513836 0.0044354 -0.0513836
2851.000000 0.0042616 -0.0496412 0.9957384 0.0496412 0.9957384 0.0496412 0.0042616 -0.0496412
2872.000000 0.0040952 -0.0479111 0.9959048 0.0479111 0.9959048 0.0479111 0.0040952 -0.0479111
2893.000000 0.0039361 -0.0461931 0.9960639 0.0461931 0.9960639 0.0461931 0.0039361 -0.0461931
2914.000000 0.0037839 -0.0444869 0.9962161 0.0444869 0.9962161 0.0444869 0.0037839 -0.0444869
2935.000000 0.0036388 -0.0427922 0.9963612 0.0427922 0.9963612 0.0427922 0.0036388 -0.0427922
2956.000000 0.0035003 -0.0411087 0.9964997 0.0411087 0.9964997 0.0411087 0.0035003 -0.0411087
2977.000000 0.0033685 -0.0394361 0.9966315 0.0394361 0.9966315 0.0394361 0.0033685 -0.0394361
2998.000000 0.0032432 -0.0377743 0.9967568 0.0377743 0.9967568 0.0377743 0.0032432 -0.0377743
3019.000000 0.0031242 -0.0361229 0.9968758 0.0361229 0.9968758 0.0361229 0.0031242 -0.0361229
3040.000000 0.0030115 -0.0344816 0.9969885 0.0344816 0.9969885 0.0344816 0.0030115 -0.0344816
3061.000000 0.0029049 -0.0328503 0.9970951 0.0328503 0.9970951 0.0328503 0.0029049 -0.0328503
3082.000000 0.0028043 -0.0312286 0.9971957 0.0312286 0.9971957 0.0312286 0.0028043 -0.0312286
3103.000000 0.0027095 -0.0296163 0.9972905 0.0296163 0.9972905 0.0296163 0.0027095 -0.0296163
3124.000000 0.0026206 -0.0280133 0.9973794 0.0280133 0.9973794 0.0280133 0.0026206 -0.0280133
3145.000000 0.0025373 -0.0264193 0.9974627 0.0264193 0.9974627 0.0264193 0.0025373 -0.0264193
3166.000000 0.0024596 -0.0248340 0.9975404 0.0248340 0.9975404 0.0248340 0.0024596 -0.0248340
3187.000000 0.0023873 -0.0232572 0.9976127 0.0232572 0.9976127 0.0232572 0.0023873 -0.0232572
3208.000000 0.0023205 -0.0216887 0.9976795 0.0216887 0.9976795 0.0216887 0.0023205 -0.0216887
3229.000000 0.0022589 -0.0201283 0.9977411 0.0201283 0.9977411 0.0201283 0.0022589 -0.0201283
3250.000000 0.0022026 -0.0185759 0.9977974 0.0185759 0.9977974 0.0185759 0.0022026 -0.0185759
3271.000000 0.0021514 -0.0170311 0.9978486 0.0170311 0.9978486 0.0170311 0.0021514 -0.0170311
3292.000000 0.0021052 -0.0154938 0.9978948 0.0154938 0.9978948 0.0154938 0.0021052 -0.0154938
3313.000000 0.0020640 -0.0139638 0.9979360 0.0139638 0.9979360 0.0139638 0.0020640 -0.0139638
3334.000000 0.0020278 -0.0124409 0.9979722 0.0124409 0.9979722 0.0124409 0.0020278 -0.0124409
3355.000000 0.0019963 -0.0109250 0.9980037 0.0109250 0.9980037 0.0109250 0.0019963 -0.0109250
3376.000000 0.0019697 -0.0094157 0.9980303 0.0094157 0.9980303 0.0094157 0.0019697 -0.0094157
3397.000000 0.0019477 -0.0079130 0.9980523 0.0079130 0.9980523 0.0079130 0.0019477 -0.0079130
3418.000000 0.0019304 -0.0064167 0.9980696 0.0064167 0.9980696 0.0064167 0.0019304 -0.0064167
3439.000000 0.0019176 -0.0049265 0.9980824 0.0049265 0.9980824 0.0049265 0.0019176 -0.0049265
3460.000000 0.0019094 -0.0034424 0.9980906 0.0034424 0.9980906 0.0034424 0.0019094 -0.0034424
3481.000000 0.0019057 -0.0019641 0.9980943 0.0019641 0.9980943 0.0019641 0.0019057 -0.0019641
3502.000000 0.0019064 -0.0004915 0.9980936 0.0004915 0.9980936 0.0004915 0.0019064 -0.0004915
3523.000000 0.0019115 0.0009756 0.9980885 -0.0009756 0.9980885 -0.0009756 0.0019115 0.0009756
3544.000000 0.0019209 0.0024374 0.9980791 -0.0024374 0.9980791 -0.0024374 0.0019209 0.0024374
3565.000000 0.0019346 0.0038940 0.9980654 -0.0038940 0.9980654 -0.0038940 0.0019346 0.0038940
3586.000000 0.0019526 0.0053455 0.9980474 -0.0053455 0.9980474 -0.0053455 0.0019526 0.0053455
3607.000000 0.0019747 0.0067922 0.9980253 -0.0067922 0.9980253 -0.0067922 0.0019747 0.0067922
3628.000000 0.0020010 0.0082342 0.9979990 -0.0082342 0.9979990 -0.0082342 0.0020010 0.0082342
3649.000000 0.0020315 0.0096717 0.9979685 -0.0096717 0.9979685 -0.0096717 0.0020315 0.0096717
3670.000000 0.0020660 0.0111047 0.9979340 -0.0111047 0.9979340 -0.0111047 0.0020660 0.0111047
3691.000000 0.0021047 0.0125335 0.9978953 -0.0125335 0.9978953 -0.0125335 0.0021047 0.0125335
3712.000000 0.0021473 0.0139581 0.9978527 -0.0139581 0.9978527 -0.0139581 0.0021473 0.0139581
3733.000000 0.0021940 0.0153788 0.9978060 -0.0153788 0.9978060 -0.0153788 0.0021940 0.0153788
3754.000000 0.0022446 0.0167957 0.9977554 -0.0167957 0.9977554 -0.0167957 0.0022446 0.0167957
3775.000000 0.0022993 0.0182089 0.9977007 -0.0182089 0.9977007 -0.0182089 0.0022993 0.0182089
3796.000000 0.0023578 0.0196186 0.9976422 -0.0196186 0.9976422 -0.0196186 0.0023578 0.0196186
3817.000000 0.0024203 0.0210249 0.9975797 -0.0210249 0.9975797 -0.0210249 0.0024203 0.0210249
3838.000000 0.0024867 0.0224279 0.9975133 -0.0224279 0.9975133 -0.0224279 0.0024867 0.0224279
3859.000000 0.0025569 0.0238278 0.9974431 -0.0238278 0.9974431 -0.0238278 0.0025569 0.0238278
3880.000000 0.0026310 0.0252247 0.9973690 -0.0252247 0.9973690 -0.0252247 0.0026310 0.0252247
3901.000000 0.0027090 0.0266188 0.9972910 -0.0266188 0.9972910 -0.0266188 0.0027090 0.0266188
3922.000000 0.0027909 0.0280102 0.9972091 -0.0280102 0.9972091 -0.0280102 0.0027909 0.0280102
3943.000000 0.0028765 0.0293990 0.9971235 -0.0293990 0.9971235 -0.0293990 0.0028765 0.0293990
3964.000000 0.0029660 0.0307854 0.9970340 -0.0307854 0.9970340 -0.0307854 0.0029660 0.0307854
3985.000000 0.0030593 0.0321695 0.9969407 -0.0321695 0.9969407 -0.0321695 0.0030593 0.0321695
4006.000000 0.0031564 0.0335514 0.9968436 -0.0335514 0.9968436 -0.0335514 0.0031564 0.0335514
4027.000000 0.0032574 0.0349313 0.9967426 -0.0349313 0.9967426 -0.0349313 0.0032574 0.0349313
4048.000000 0.0033621 0.0363092 0.9966379 -0.0363092 0.9966379 -0.0363092 0.0033621 0.0363092
4069.000000 0.0034707 0.0376854 0.9965293 -0.0376854 0.9965293 -0.0376854 0.0034707 0.0376854
4090.000000 0.0035830 0.0390599 0.9964170 -0.0390599 0.9964170 -0.0390599 0.0035830 0.0390599
4111.000000 0.0036992 0.0404329 0.9963008 -0.0404329 0.9963008 -0.0404329 0.0036992 0.0404329
4132.000000 0.0038192 0.0418045 0.9961808 -0.0418045 0.9961808 -0.0418045 0.0038192 0.0418045
4153.000000 0.0039430 0.0431749 0.9960570 -0.0431749 0.9960570 -0.0431749 0.0039430 0.0431749
4174.000000 0.0040707 0.0445441 0.9959293 -0.0445441 0.9959293 -0.0445441 0.0040707 0.0445441
4195.000000 0.0042022 0.0459123 0.9957978 -0.0459123 0.9957978 -0.0459123 0.0042022 0.0459123
4216.000000 0.0043376 0.0472797 0.9956624 -0.0472797 0.9956624 -0.0472797 0.0043376 0.0472797
4237.000000 0.0044769 0.0486463 0.9955231 -0.0486463 0.9955231 -0.0486463 0.0044769 0.0486463
4258.000000 0.0046201 0.0500124 0.9953799 -0.0500124 0.9953799 -0.0500124 0.0046201 0.0500124
4279.000000 0.0047671 0.0513779 0.9952329 -0.0513779 0.9952329 -0.0513779 0.0047671 0.0513779
4300.000000 0.0049181 0.0527432 0.9950819 -0.0527432 0.9950819 -0.0527432 0.0049181 0.0527432
4321.000000 0.0050731 0.0541082 0.9949269 -0.0541082 0.9949269 -0.0541082 0.0050731 0.0541082
4342.000000 0.0052320 0.0554731 0.9947680 -0.0554731 0.9947680 -0.0554731 0.0052320 0.0554731
4363.000000 0.0053950 0.0568381 0.9946050 -0.0568381 0.9946050 -0.0568381 0.0053950 0.0568381
4384.000000 0.0055619 0.0582034 0.9944381 -0.0582034 0.9944381 -0.0582034 0.0055619 0.0582034
4405.000000 0.0057330 0.0595689 0.9942670 -0.0595689 0.9942670 -0.0595689 0.0057330 0.0595689
4426.000000 0.0059081 0.0609349 0.9940919 -0.0609349 0.9940919 -0.0609349 0.0059081 0.0609349
4447.000000 0.0060874 0.0623016 0.9939126 -0.0623016 0.9939126 -0.0623016 0.0060874 0.0623016
4468.000000 0.0062708 0.0636690 0.9937292 -0.0636690 0.9937292 -0.0636690 0.0062708 0.0636690
4489.000000 0.0064585 0.0650373 0.9935415 -0.0650373 0.9935415 -0.0650373 0.0064585 0.0650373
4510.000000 0.0066504 0.0664066 0.9933496 -0.0664066 0.9933496 -0.0664066 0.0066504 0.0664066
4531.000000 0.0068466 0.0677771 0.9931534 -0.0677771 0.9931534 -0.0677771 0.0068466 0.0677771
4552.000000 0.0070471 0.0691490 0.9929529 -0.0691490 0.9929529 -0.0691490 0.0070471 0.0691490
4573.000000 0.0072521 0.0705224 0.9927479 -0.0705224 0.9927479 -0.0705224 0.0072521 0.0705224
4594.000000 0.0074615 0.0718974 0.9925385 -0.0718974 0.9925385 -0.0718974 0.0074615 0.0718974
4615.000000 0.0076754 0.0732742 0.9923246 -0.0732742 0.9923246 -0.0732742 0.0076754 0.0732742
4636.000000 0.0078939 0.0746530 0.9921061 -0.0746530 0.9921061 -0.0746530 0.0078939 0.0746530
4657.000000 0.0081170 0.0760339 0.9918830 -0.0760339 0.9918830 -0.0760339 0.0081170 0.0760339
4678.000000 0.0083448 0.0774171 0.9916552 -0.0774171 0.9916552 -0.0774171 0.0083448 0.0774171
4699.000000 0.0085774 0.0788027 0.9914226 -0.0788027 0.9914226 -0.0788027 0.0085774 0.0788027
4720.000000 0.0088148 0.0801910 0.9911852 -0.0801910 0.9911852 -0.0801910 0.0088148 0.0801910
4741.000000 0.0090572 0.0815821 0.9909428 -0.0815821 0.9909428 -0.0815821 0.0090572 0.0815821
4762.000000 0.0093046 0.0829761 0.9906954 -0.0829761 0.9906954 -0.0829761 0.0093046 0.0829761
4783.000000 0.0095570 0.0843734 0.9904430 -0.0843734 0.9904430 -0.0843734 0.0095570 0.0843734
4804.000000 0.0098147 0.0857740 0.9901853 -0.0857740 0.9901853 -0.0857740 0.0098147 0.0857740
4825.000000 0.0100777 0.0871781 0.9899223 -0.0871781 0.9899223 -0.0871781 0.0100777 0.0871781
4846.000000 0.0103460 0.0885860 0.9896540 -0.0885860 0.9896540 -0.0885860 0.0103460 0.0885860
4867.000000 0.0106199 0.0899979 0.9893801 -0.0899979 0.9893801 -0.0899979 0.0106199 0.0899979
4888.000000 0.0108994 0.0914139 0.9891006 -0.0914139 0.9891006 -0.0914139 0.0108994 0.0914139
4909.000000 0.0111846 0.0928344 0.9888154 -0.0928344 0.9888154 -0.0928344 0.0111846 0.0928344
4930.000000 0.0114757 0.0942595 0.9885243 -0.0942595 0.9885243 -0.0942595 0.0114757 0.0942595
4951.000000 0.0117728 0.0956894 0.9882272 -0.0956894 0.9882272 -0.0956894 0.0117728 0.0956894
4972.000000 0.0120761 0.0971244 0.9879239 -0.0971244 0.9879239 -0.0971244 0.0120761 0.0971244
4993.000000 0.0123857 0.0985648 0.9876143 -0.0985648 0.9876143 -0.0985648 0.0123857 0.0985648
5014.000000 0.0127017 0.1000108 0.9872983 -0.1000108 0.9872983 -0.1000108 0.0127017 0.1000108
5035.000000 0.0130244 0.1014627 0.9869756 -0.1014627 0.9869756 -0.1014627 0.0130244 0.1014627
5056.000000 0.0133540 0.1029208 0.9866460 -0.1029208 0.9866460 -0.1029208 0.0133540 0.1029208
5077.000000 0.0136905 0.1043854 0.9863095 -0.1043854 0.9863095 -0.1043854 0.0136905 0.1043854
5098.000000 0.0140343 0.1058567 0.9859657 -0.1058567 0.9859657 -0.1058567 0.0140343 0.1058567
5119.000000 0.0143856 0.1073351 0.9856144 -0.1073351 0.9856144 -0.1073351 0.0143856 0.1073351
5140.000000 0.0147445 0.1088209 0.9852555 -0.1088209 0.9852555 -0.1088209 0.0147445 0.1088209
5161.000000 0.0151114 0.1103145 0.9848886 -0.1103145 0.9848886 -0.1103145 0.0151114 0.1103145
5182.000000 0.0154865 0.1118163 0.9845135 -0.1118163 0.9845135 -0.1118163 0.0154865 0.1118163
5203.000000 0.0158700 0.1133266 0.9841300 -0.1133266 0.9841300 -0.1133266 0.0158700 0.1133266
5224.000000 0.0162624 0.1148459 0.9837376 -0.1148459 0.9837376 -0.1148459 0.0162624 0.1148459
5245.000000 0.0166640 0.1163745 0.9833360 -0.1163745 0.9833360 -0.1163745 0.0166640 0.1163745
5266.000000 0.0170750 0.1179129 0.9829250 -0.1179129 0.9829250 -0.1179129 0.0170750 0.1179129
5287.000000 0.0174958 0.1194617 0.9825042 -0.1194617 0.9825042 -0.1194617 0.0174958 0.1194617
5308.000000 0.0179270 0.1210212 0.9820730 -0.1210212 0.9820730 -0.1210212 0.0179270 0.1210212
5329.000000 0.0183689 0.1225921 0.9816311 -0.1225921 0.9816311 -0.1225921 0.0183689 0.1225921
5350.000000 0.0188219 0.1241749 0.9811781 -0.1241749 0.9811781 -0.1241749 0.0188219 0.1241749
5371.000000 0.0192867 0.1257702 0.9807133 -0.1257702 0.9807133 -0.1257702 0.0192867 0.1257702
5392.000000 0.0197638 0.1273786 0.9802362 -0.1273786 0.9802362 -0.1273786 0.0197638 0.1273786
5413.000000 0.0202537 0.1290008 0.9797463 -0.1290008 0.9797463 -0.1290008 0.0202537 0.1290008
5434.000000 0.0207572 0.1306376 0.9792428 -0.1306376 0.9792428 -0.1306376 0.0207572 0.1306376
5455.000000 0.0212749 0.1322898 0.9787251 -0.1322898 0.9787251 -0.1322898 0.0212749 0.1322898
5476.000000 0.0218078 0.1339581 0.9781922 -0.1339581 0.9781922 -0.1339581 0.0218078 0.1339581
5497.000000 0.0223565 0.1356434 0.9776435 -0.1356434 0.9776435 -0.1356434 0.0223565 0.1356434
5518.000000 0.0229221 0.1373467 0.9770779 -0.1373467 0.9770779 -0.1373467 0.0229221 0.1373467
5539.000000 0.0235057 0.1390691 0.9764943 -0.1390691 0.9764943 -0.1390691 0.0235057 0.1390691
5560.000000 0.0241083 0.1408116 0.9758917 -0.1408116 0.9758917 -0.1408116 0.0241083 0.1408116
5581.000000 0.0247312 0.1425755 0.9752688 -0.1425755 0.9752688 -0.1425755 0.0247312 0.1425755
5602.000000 0.0253760 0.1443620 0.9746240 -0.1443620 0.9746240 -0.1443620 0.0253760 0.1443620
5623.000000 0.0260441 0.1461726 0.9739559 -0.1461726 0.9739559 -0.1461726 0.0260441 0.1461726
5644.000000 0.0267373 0.1480087 0.9732627 -0.1480087 0.9732627 -0.1480087 0.0267373 0.1480087
5665.000000 0.0274576 0.1498720 0.9725424 -0.1498720 0.9725424 -0.1498720 0.0274576 0.1498720
5686.000000 0.0282072 0.1517644 0.9717928 -0.1517644 0.9717928 -0.1517644 0.0282072 0.1517644
5707.000000 0.0289886 0.1536879 0.9710114 -0.1536879 0.9710114 -0.1536879 0.0289886 0.1536879
5728.000000 0.0298047 0.1556444 0.9701953 -0.1556444 0.9701953 -0.1556444 0.0298047 0.1556444
5749.000000 0.0306585 0.1576365 0.9693415 -0.1576365 0.9693415 -0.1576365 0.0306585 0.1576365
5770.000000 0.0315539 0.1596667 0.9684461 -0.1596667 0.9684461 -0.1596667 0.0315539 0.1596667
5791.000000 0.0324949 0.1617378 0.9675051 -0.1617378 0.9675051 -0.1617378 0.0324949 0.1617378
5812.000000 0.0334865 0.1638530 0.9665135 -0.1638530 0.9665135 -0.1638530 0.0334865 0.1638530
5833.000000 0.0345341 0.1660156 0.9654659 -0.1660156 0.9654659 -0.1660156 0.0345341 0.1660156
5854.000000 0.0356442 0.1682295 0.9643558 -0.1682295 0.9643558 -0.1682295 0.0356442 0.1682295
5875.000000 0.0368244 0.1704987 0.9631756 -0.1704987 0.9631756 -0.1704987 0.0368244 0.1704987
5896.000000 0.0380834 0.1728278 0.9619166 -0.1728278 0.9619166 -0.1728278 0.0380834 0.1728278
5917.000000 0.0394318 0.1752218 0.9605682 -0.1752218 0.9605682 -0.1752218 0.0394318 0.1752218
5938.000000 0.0408819 0.1776861 0.9591181 -0.1776861 0.9591181 -0.1776861 0.0408819 0.1776861
5959.000000 0.0424485 0.1802265 0.9575515 -0.1802265 0.9575515 -0.1802265 0.0424485 0.1802265
5980.000000 0.0441494 0.1828493 0.9558506 -0.1828493 0.9558506 -0.1828493 0.0441494 0.1828493
6001.000000 0.0460061 0.1855612 0.9539939 -0.1855612 0.9539939 -0.1855612 0.0460061 0.1855612
6022.000000 0.0480448 0.1883690 0.9519552 -0.1883690 0.9519552 -0.1883690 0.0480448 0.1883690
6043.000000 0.0502977 0.1912793 0.9497023 -0.1912793 0.9497023 -0.1912793 0.0502977 0.1912793
6064.000000 0.0528049 0.1942982 0.9471951 -0.1942982 0.9471951 -0.1942982 0.0528049 0.1942982
6085.000000 0.0556160 0.1974302 0.9443840 -0.1974302 0.9443840 -0.1974302 0.0556160 0.1974302
6106.000000 0.0587938 0.2006766 0.9412062 -0.2006766 0.9412062 -0.2006766 0.0587938 0.2006766
6127.000000 0.0624176 0.2040331 0.9375824 -0.2040331 0.9375824 -0.2040331 0.0624176 0.2040331
6148.000000 0.0665886 0.2074854 0.9334114 -0.2074854 0.9334114 -0.2074854 0.0665886 0.2074854
6169.000000 0.0714365 0.2110019 0.9285635 -0.2110019 0.9285635 -0.2110019 0.0714365 0.2110019
6190.000000 0.0771271 0.2145220 0.9228729 -0.2145220 0.9228729 -0.2145220 0.0771271 0.2145220
6211.000000 0.0838723 0.2179352 0.9161277 -0.2179352 0.9161277 -0.2179352 0.0838723 0.2179352
6232.000000 0.0919366 0.2210471 0.9080634 -0.2210471 0.9080634 -0.2210471 0.0919366 0.2210471
6253.000000 0.1016368 0.2235228 0.8983632 -0.2235228 0.8983632 -0.2235228 0.1016368 0.2235228
6274.000000 0.1133143 0.2247968 0.8866857 -0.2247968 0.8866857 -0.2247968 0.1133143 0.2247968
6295.000000 0.1272396 0.2239421 0.8727604 -0.2239421 0.8727604 -0.2239421 0.1272396 0.2239421
6316.000000 0.1433683 0.2195247 0.8566317 -0.2195247 0.8566317 -0.2195247 0.1433683 0.2195247
6337.000000 0.1608314 0.2095792 0.8391686 -0.2095792 0.8391686 -0.2095792 0.1608314 0.2095792
6358.000000 0.1771529 0.1920879 0.8228471 -0.1920879 0.8228471 -0.1920879 0.1771529 0.1920879
6379.000000 0.1877742 0.1665180 0.8122258 -0.1665180 0.8122258 -0.1665180 0.1877742 0.1665180
6400.000000 0.1874450 0.1360766 0.8125550 -0.1360766 0.8125550 -0.1360766 0.1874450 0.1360766
6421.000000 0.1741292 0.1078774 0.8258708 -0.1078774 0.8258708 -0.1078774 0.1741292 0.1078774
6442.000000 0.1515829 0.0887054 0.8484171 -0.0887054 0.8484171 -0.0887054 0.1515829 0.0887054
6463.000000 0.1265404 0.0805705 0.8734596 -0.0805705 0.8734596 -0.0805705 0.1265404 0.0805705
6484.000000 0.1040923 0.0811461 0.8959077 -0.0811461 0.8959077 -0.0811461 0.1040923 0.0811461
6505.000000 0.0862225 0.0868965 0.9137775 -0.0868965 0.9137775 -0.0868965 0.0862225 0.0868965
6526.000000 0.0728741 0.0950452 0.9271259 -0.0950452 0.9271259 -0.0950452 0.0728741 0.0950452
6547.000000 0.0632236 0.1039260 0.9367764 -0.1039260 0.9367764 -0.1039260 0.0632236 0.1039260
6568.000000 0.0563648 0.1126886 0.9436352 -0.1126886 0.9436352 -0.1126886 0.0563648 0.1126886
6589.000000 0.0515447 0.1209595 0.9484553 -0.1209595 0.9484553 -0.1209595 0.0515447 0.1209595
6610.000000 0.0481979 0.1286134 0.9518021 -0.1286134 0.9518021 -0.1286134 0.0481979 0.1286134
6631.000000 0.0459179 0.1356434 0.9540821 -0.1356434 0.9540821 -0.1356434 0.0459179 0.1356434
6652.000000 0.0444160 0.1420937 0.9555840 -0.1420937 0.9555840 -0.1420937 0.0444160 0.1420937
6673.000000 0.0434880 0.1480267 0.9565120 -0.1480267 0.9565120 -0.1480267 0.0434880 0.1480267
6694.000000 0.0429886 0.1535074 0.9570114 -0.1535074 0.9570114 -0.1535074 0.0429886 0.1535074
6715.000000 0.0428136 0.1585965 0.9571864 -0.1585965 0.9571864 -0.1585965 0.0428136 0.1585965
6736.000000 0.0428874 0.1633483 0.9571126 -0.1633483 0.9571126 -0.1633483 0.0428874 0.1633483
6757.000000 0.0431547 0.1678098 0.9568453 -0.1678098 0.9568453 -0.1678098 0.0431547 0.1678098
6778.000000 0.0435748 0.1720214 0.9564252 -0.1720214 0.9564252 -0.1720214 0.0435748 0.1720214
6799.000000 0.0441171 0.1760176 0.9558829 -0.1760176 0.9558829 -0.1760176 0.0441171 0.1760176
6820.000000 0.0447587 0.1798277 0.9552413 -0.1798277 0.9552413 -0.1798277 0.0447587 0.1798277
6841.000000 0.0454823 0.1834768 0.9545177 -0.1834768 0.9545177 -0.1834768 0.0454823 0.1834768
6862.000000 0.0462744 0.1869862 0.9537256 -0.1869862 0.9537256 -0.1869862 0.0462744 0.1869862
6883.000000 0.0471251 0.1903743 0.9528749 -0.1903743 0.9528749 -0.1903743 0.0471251 0.1903743
6904.000000 0.0480263 0.1936566 0.9519737 -0.1936566 0.9519737 -0.1936566 0.0480263 0.1936566
6925.000000 0.0489721 0.1968468 0.9510279 -0.1968468 0.9510279 -0.1968468 0.0489721 0.1968468
6946.000000 0.0499577 0.1999566 0.9500423 -0.1999566 0.9500423 -0.1999566 0.0499577 0.1999566
6967.000000 0.0509795 0.2029962 0.9490205 -0.2029962 0.9490205 -0.2029962 0.0509795 0.2029962
6988.000000 0.0520348 0.2059745 0.9479652 -0.2059745 0.9479652 -0.2059745 0.0520348 0.2059745
7009.000000 0.0531215 0.2088993 0.9468785 -0.2088993 0.9468785 -0.2088993 0.0531215 0.2088993
7030.000000 0.0542379 0.2117776 0.9457621 -0.2117776 0.9457621 -0.2117776 0.0542379 0.2117776
7051.000000 0.0553830 0.2146153 0.9446170 -0.2146153 0.9446170 -0.2146153 0.0553830 0.2146153
7072.000000 0.0565560 0.2174178 0.9434440 -0.2174178 0.9434440 -0.2174178 0.0565560 0.2174178
7093.000000 0.0577562 0.2201900 0.9422438 -0.2201900 0.9422438 -0.2201900 0.0577562 0.2201900
7114.000000 0.0589836 0.2229362 0.9410164 -0.2229362 0.9410164 -0.2229362 0.0589836 0.2229362
7135.000000 0.0602379 0.2256601 0.9397621 -0.2256601 0.9397621 -0.2256601 0.0602379 0.2256601
7156.000000 0.0615193 0.2283652 0.9384807 -0.2283652 0.9384807 -0.2283652 0.0615193 0.2283652
7177.000000 0.0628280 0.2310547 0.9371720 -0.2310547 0.9371720 -0.2310547 0.0628280 0.2310547
7198.000000 0.0641644 0.2337313 0.9358356 -0.2337313 0.9358356 -0.2337313 0.0641644 0.2337313
7219.000000 0.0655289 0.2363976 0.9344711 -0.2363976 0.9344711 -0.2363976 0.0655289 0.2363976
7240.000000 0.0669220 0.2390559 0.9330780 -0.2390559 0.9330780 -0.2390559 0.0669220 0.2390559
7261.000000 0.0683445 0.2417083 0.9316555 -0.2417083 0.9316555 -0.2417083 0.0683445 0.2417083
7282.000000 0.0697970 0.2443567 0.9302030 -0.2443567 0.9302030 -0.2443567 0.0697970 0.2443567
7303.000000 0.0712803 0.2470028 0.9287197 -0.2470028 0.9287197 -0.2470028 0.0712803 0.2470028
7324.000000 0.0727954 0.2496483 0.9272046 -0.2496483 0.9272046 -0.2496483 0.0727954 0.2496483
7345.000000 0.0743430 0.2522945 0.9256570 -0.2522945 0.9256570 -0.2522945 0.0743430 0.2522945
7366.000000 0.0759243 0.2549428 0.9240757 -0.2549428 0.9240757 -0.2549428 0.0759243 0.2549428
7387.000000 0.0775402 0.2575944 0.9224598 -0.2575944 0.9224598 -0.2575944 0.0775402 0.2575944
7408.000000 0.0791919 0.2602503 0.9208081 -0.2602503 0.9208081 -0.2602503 0.0791919 0.2602503
7429.000000 0.0808805 0.2629114 0.9191195 -0.2629114 0.9191195 -0.2629114 0.0808805 0.2629114
7450.000000 0.0826072 0.2655785 0.9173928 -0.2655785 0.9173928 -0.2655785 0.0826072 0.2655785
7471.000000 0.0843733 0.2682525 0.9156267 -0.2682525 0.9156267 -0.2682525 0.0843733 0.2682525
7492.000000 0.0861801 0.2709338 0.9138199 -0.2709338 0.9138199 -0.2709338 0.0861801 0.2709338
7513.000000 0.0880289 0.2736231 0.9119711 -0.2736231 0.9119711 -0.2736231 0.0880289 0.2736231
7534.000000 0.0899212 0.2763206 0.9100788 -0.2763206 0.9100788 -0.2763206 0.0899212 0.2763206
7555.000000 0.0918584 0.2790266 0.9081416 -0.2790266 0.9081416 -0.2790266 0.0918584 0.2790266
7576.000000 0.0938420 0.2817413 0.9061580 -0.2817413 0.9061580 -0.2817413 0.0938420 0.2817413
7597.000000 0.0958734 0.2844646 0.9041266 -0.2844646 0.9041266 -0.2844646 0.0958734 0.2844646
7618.000000 0.0979543 0.2871964 0.9020457 -0.2871964 0.9020457 -0.2871964 0.0979543 0.2871964
7639.000000 0.1000860 0.2899363 0.8999140 -0.2899363 0.8999140 -0.2899363 0.1000860 0.2899363
7660.000000 0.1022703 0.2926840 0.8977297 -0.2926840 0.8977297 -0.2926840 0.1022703 0.2926840
7681.000000 0.1045084 0.2954388 0.8954916 -0.2954388 0.8954916 -0.2954388 0.1045084 0.2954388
7702.000000 0.1068020 0.2981999 0.8931980 -0.2981999 0.8931980 -0.2981999 0.1068020 0.2981999
7723.000000 0.1091523 0.3009663 0.8908477 -0.3009663 0.8908477 -0.3009663 0.1091523 0.3009663
7744.000000 0.1115606 0.3037367 0.8884394 -0.3037367 0.8884394 -0.3037367 0.1115606 0.3037367
7765.000000 0.1140279 0.3065099 0.8859721 -0.3065099 0.8859721 -0.3065099 0.1140279 0.3065099
7786.000000 0.1165552 0.3092841 0.8834448 -0.3092841 0.8834448 -0.3092841 0.1165552 0.3092841
7807.000000 0.1191430 0.3120576 0.8808570 -0.3120576 0.8808570 -0.3120576 0.1191430 0.3120576
7828.000000 0.1217915 0.3148284 0.8782085 -0.3148284 0.8782085 -0.3148284 0.1217915 0.3148284
7849.000000 0.1245007 0.3175946 0.8754993 -0.3175946 0.8754993 -0.3175946 0.1245007 0.3175946
7870.000000 0.1272698 0.3203539 0.8727302 -0.3203539 0.8727302 -0.3203539 0.1272698 0.3203539
7891.000000 0.1300975 0.3231044 0.8699025 -0.3231044 0.8699025 -0.3231044 0.1300975 0.3231044
7912.000000 0.1329820 0.3258441 0.8670180 -0.3258441 0.8670180 -0.3258441 0.1329820 0.3258441
7933.000000 0.1359206 0.3285715 0.8640794 -0.3285715 0.8640794 -0.3285715 0.1359206 0.3285715
7954.000000 0.1389097 0.3312855 0.8610903 -0.3312855 0.8610903 -0.3312855 0.1389097 0.3312855
7975.000000 0.1419452 0.3339859 0.8580548 -0.3339859 0.8580548 -0.3339859 0.1419452 0.3339859
7996.000000 0.1450223 0.3366737 0.8549777 -0.3366737 0.8549777 -0.3366737 0.1450223 0.3366737
8017.000000 0.1481354 0.3393511 0.8518646 -0.3393511 0.8518646 -0.3393511 0.1481354 0.3393511
8038.000000 0.1512790 0.3420221 0.8487210 -0.3420221 0.8487210 -0.3420221 0.1512790 0.3420221
8059.000000 0.1544475 0.3446929 0.8455525 -0.3446929 0.8455525 -0.3446929 0.1544475 0.3446929
8080.000000 0.1576363 0.3473716 0.8423637 -0.3473716 0.8423637 -0.3473716 0.1576363 0.3473716
8101.000000 0.1608419 0.3500685 0.8391581 -0.3500685 0.8391581 -0.3500685 0.1608419 0.3500685
8122.000000 0.1640632 0.3527960 0.8359368 -0.3527960 0.8359368 -0.3527960 0.1640632 0.3527960
8143.000000 0.1673016 0.3555679 0.8326984 -0.3555679 0.8326984 -0.3555679 0.1673016 0.3555679
8164.000000 0.1705618 0.3583989 0.8294382 -0.3583989 0.8294382 -0.3583989 0.1705618 0.3583989
8185.000000 0.1738522 0.3613034 0.8261478 -0.3613034 0.8261478 -0.3613034 0.1738522 0.3613034
8206.000000 0.1771848 0.3642950 0.8228152 -0.3642950 0.8228152 -0.3642950 0.1771848 0.3642950
8227.000000 0.1805749 0.3673850 0.8194251 -0.3673850 0.8194251 -0.3673850 0.1805749 0.3673850
8248.000000 0.1840404 0.3705819 0.8159596 -0.3705819 0.8159596 -0.3705819 0.1840404 0.3705819
8269.000000 0.1876009 0.3738905 0.8123991 -0.3738905 0.8123991 -0.3738905 0.1876009 0.3738905
8290.000000 0.1912766 0.3773123 0.8087234 -0.3773123 0.8087234 -0.3773123 0.1912766 0.3773123
8311.000000 0.1950875 0.3808450 0.8049125 -0.3808450 0.8049125 -0.3808450 0.1950875 0.3808450
8332.000000 0.1990526 0.3844832 0.8009474 -0.3844832 0.8009474 -0.3844832 0.1990526 0.3844832
8353.000000 0.2031890 0.3882192 0.7968110 -0.3882192 0.7968110 -0.3882192 0.2031890 0.3882192
8374.000000 0.2075119 0.3920432 0.7924881 -0.3920432 0.7924881 -0.3920432 0.2075119 0.3920432
8395.000000 0.2120345 0.3959447 0.7879655 -0.3959447 0.7879655 -0.3959447 0.2120345 0.3959447
8416.000000 0.2167680 0.3999123 0.7832320 -0.3999123 0.7832320 -0.3999123 0.2167680 0.3999123
8437.000000 0.2217218 0.4039349 0.7782782 -0.4039349 0.7782782 -0.4039349 0.2217218 0.4039349
8458.000000 0.2269041 0.4080015 0.7730959 -0.4080015 0.7730959 -0.4080015 0.2269041 0.4080015
8479.000000 0.2323218 0.4121016 0.7676782 -0.4121016 0.7676782 -0.4121016 0.2323218 0.4121016
8500.000000 0.2379815 0.4162254 0.7620185 -0.4162254 0.7620185 -0.4162254 0.2379815 0.4162254
