!Murata Part Number: GQM1885C2A5R0BB01
!These Parameters are Measured in Series Mode Connection
!       o--ll--o
!Port1            Port2
!       o------o
!Operation Temp=25[C], DC Bias Voltage=0[V]
!Freq. Start=100[MHz] Stop=8500[MHz] 401[Steps]
# MHz S RI R 50
!Freq.(MHz) S11(Real) S11(Imag) S21(Real) S21(Imag) S12(Real) S12(Imag) S22(Real) S22(Imag)
100.000000 0.9099226 -0.2860960 0.0900774 0.2860960 0.0900774 0.2860960 0.9099226 -0.2860960
121.000000 0.8733188 -0.3323775 0.1266812 0.3323775 0.1266812 0.3323775 0.8733188 -0.3323775
142.000000 0.8333524 -0.3723815 0.1666476 0.3723815 0.1666476 0.3723815 0.8333524 -0.3723815
163.000000 0.7912691 -0.4060806 0.2087309 0.4060806 0.2087309 0.4060806 0.7912691 -0.4060806
184.000000 0.7481798 -0.4336957 0.2518202 0.4336957 0.2518202 0.4336957 0.7481798 -0.4336957
205.000000 0.7050220 -0.4556282 0.2949780 0.4556282 0.2949780 0.4556282 0.7050220 -0.4556282
226.000000 0.6625479 -0.4723939 0.3374521 0.4723939 0.3374521 0.4723939 0.6625479 -0.4723939
247.000000 0.6213296 -0.4845671 0.3786704 0.4845671 0.3786704 0.4845671 0.6213296 -0.4845671
268.000000 0.5817770 -0.4927362 0.4182230 0.4927362 0.4182230 0.4927362 0.5817770 -0.4927362
289.000000 0.5441617 -0.4974724 0.4558383 0.4974724 0.4558383 0.4974724 0.5441617 -0.4974724
310.000000 0.5086423 -0.4993091 0.4913577 0.4993091 0.4913577 0.4993091 0.5086423 -0.4993091
331.000000 0.4752891 -0.4987299 0.5247109 0.4987299 0.5247109 0.4987299 0.4752891 -0.4987299
352.000000 0.4441058 -0.4961638 0.5558942 0.4961638 0.5558942 0.4961638 0.4441058 -0.4961638
373.000000 0.4150479 -0.4919846 0.5849521 0.4919846 0.5849521 0.4919846 0.4150479 -0.4919846
394.000000 0.3880374 -0.4865139 0.6119626 0.4865139 0.6119626 0.4865139 0.3880374 -0.4865139
415.000000 0.3629749 -0.4800244 0.6370251 0.4800244 0.6370251 0.4800244 0.3629749 -0.4800244
436.000000 0.3397481 -0.4727461 0.6602519 0.4727461 0.6602519 0.4727461 0.3397481 -0.4727461
457.000000 0.3182387 -0.4648707 0.6817613 0.4648707 0.6817613 0.4648707 0.3182387 -0.4648707
478.000000 0.2983274 -0.4565570 0.7016726 0.4565570 0.7016726 0.4565570 0.2983274 -0.4565570
499.000000 0.2798965 -0.4479360 0.7201035 0.4479360 0.7201035 0.4479360 0.2798965 -0.4479360
520.000000 0.2628330 -0.4391147 0.7371670 0.4391147 0.7371670 0.4391147 0.2628330 -0.4391147
541.000000 0.2470293 -0.4301802 0.7529707 0.4301802 0.7529707 0.4301802 0.2470293 -0.4301802
562.000000 0.2323845 -0.4212028 0.7676155 0.4212028 0.7676155 0.4212028 0.2323845 -0.4212028
583.000000 0.2188045 -0.4122388 0.7811955 0.4122388 0.7811955 0.4122388 0.2188045 -0.4122388
604.000000 0.2062021 -0.4033332 0.7937979 0.4033332 0.7937979 0.4033332 0.2062021 -0.4033332
625.000000 0.1944971 -0.3945212 0.8055029 0.3945212 0.8055029 0.3945212 0.1944971 -0.3945212
646.000000 0.1836156 -0.3858304 0.8163844 0.3858304 0.8163844 0.3858304 0.1836156 -0.3858304
667.000000 0.1734902 -0.3772817 0.8265098 0.3772817 0.8265098 0.3772817 0.1734902 -0.3772817
688.000000 0.1640589 -0.3688910 0.8359411 0.3688910 0.8359411 0.3688910 0.1640589 -0.3688910
709.000000 0.1552654 -0.3606698 0.8447346 0.3606698 0.8447346 0.3606698 0.1552654 -0.3606698
730.000000 0.1470582 -0.3526259 0.8529418 0.3526259 0.8529418 0.3526259 0.1470582 -0.3526259
751.000000 0.1393903 -0.3447645 0.8606097 0.3447645 0.8606097 0.3447645 0.1393903 -0.3447645
772.000000 0.1322192 -0.3370884 0.8677808 0.3370884 0.8677808 0.3370884 0.1322192 -0.3370884
793.000000 0.1255056 -0.3295987 0.8744944 0.3295987 0.8744944 0.3295987 0.1255056 -0.3295987
814.000000 0.1192142 -0.3222949 0.8807858 0.3222949 0.8807858 0.3222949 0.1192142 -0.3222949
835.000000 0.1133124 -0.3151754 0.8866876 0.3151754 0.8866876 0.3151754 0.1133124 -0.3151754
856.000000 0.1077709 -0.3082377 0.8922291 0.3082377 0.8922291 0.3082377 0.1077709 -0.3082377
877.000000 0.1025624 -0.3014784 0.8974376 0.3014784 0.8974376 0.3014784 0.1025624 -0.3014784
898.000000 0.0976625 -0.2948940 0.9023375 0.2948940 0.9023375 0.2948940 0.0976625 -0.2948940
919.000000 0.0930486 -0.2884802 0.9069514 0.2884802 0.9069514 0.2884802 0.0930486 -0.2884802
940.000000 0.0886999 -0.2822325 0.9113001 0.2822325 0.9113001 0.2822325 0.0886999 -0.2822325
961.000000 0.0845978 -0.2761464 0.9154022 0.2761464 0.9154022 0.2761464 0.0845978 -0.2761464
982.000000 0.0807247 -0.2702171 0.9192753 0.2702171 0.9192753 0.2702171 0.0807247 -0.2702171
1003.000000 0.0770650 -0.2644397 0.9229350 0.2644397 0.9229350 0.2644397 0.0770650 -0.2644397
1024.000000 0.0736039 -0.2588095 0.9263961 0.2588095 0.9263961 0.2588095 0.0736039 -0.2588095
1045.000000 0.0703282 -0.2533216 0.9296718 0.2533216 0.9296718 0.2533216 0.0703282 -0.2533216
1066.000000 0.0672254 -0.2479714 0.9327746 0.2479714 0.9327746 0.2479714 0.0672254 -0.2479714
1087.000000 0.0642842 -0.2427540 0.9357158 0.2427540 0.9357158 0.2427540 0.0642842 -0.2427540
1108.000000 0.0614942 -0.2376650 0.9385058 0.2376650 0.9385058 0.2376650 0.0614942 -0.2376650
1129.000000 0.0588457 -0.2326999 0.9411543 0.2326999 0.9411543 0.2326999 0.0588457 -0.2326999
1150.000000 0.0563298 -0.2278543 0.9436702 0.2278543 0.9436702 0.2278543 0.0563298 -0.2278543
1171.000000 0.0539382 -0.2231240 0.9460618 0.2231240 0.9460618 0.2231240 0.0539382 -0.2231240
1192.000000 0.0516633 -0.2185049 0.9483367 0.2185049 0.9483367 0.2185049 0.0516633 -0.2185049
1213.000000 0.0494981 -0.2139930 0.9505019 0.2139930 0.9505019 0.2139930 0.0494981 -0.2139930
1234.000000 0.0474361 -0.2095846 0.9525639 0.2095846 0.9525639 0.2095846 0.0474361 -0.2095846
1255.000000 0.0454711 -0.2052760 0.9545289 0.2052760 0.9545289 0.2052760 0.0454711 -0.2052760
1276.000000 0.0435975 -0.2010635 0.9564025 0.2010635 0.9564025 0.2010635 0.0435975 -0.2010635
1297.000000 0.0418101 -0.1969438 0.9581899 0.1969438 0.9581899 0.1969438 0.0418101 -0.1969438
1318.000000 0.0401039 -0.1929136 0.9598961 0.1929136 0.9598961 0.1929136 0.0401039 -0.1929136
1339.000000 0.0384746 -0.1889696 0.9615254 0.1889696 0.9615254 0.1889696 0.0384746 -0.1889696
1360.000000 0.0369178 -0.1851089 0.9630822 0.1851089 0.9630822 0.1851089 0.0369178 -0.1851089
1381.000000 0.0354295 -0.1813284 0.9645705 0.1813284 0.9645705 0.1813284 0.0354295 -0.1813284
1402.000000 0.0340062 -0.1776255 0.9659938 0.1776255 0.9659938 0.1776255 0.0340062 -0.1776255
1423.000000 0.0326443 -0.1739973 0.9673557 0.1739973 0.9673557 0.1739973 0.0326443 -0.1739973
1444.000000 0.0313407 -0.1704413 0.9686593 0.1704413 0.9686593 0.1704413 0.0313407 -0.1704413
1465.000000 0.0300924 -0.1669550 0.9699076 0.1669550 0.9699076 0.1669550 0.0300924 -0.1669550
1486.000000 0.0288964 -0.1635360 0.9711036 0.1635360 0.9711036 0.1635360 0.0288964 -0.1635360
1507.000000 0.0277503 -0.1601819 0.9722497 0.1601819 0.9722497 0.1601819 0.0277503 -0.1601819
1528.000000 0.0266515 -0.1568906 0.9733485 0.1568906 0.9733485 0.1568906 0.0266515 -0.1568906
1549.000000 0.0255977 -0.1536600 0.9744023 0.1536600 0.9744023 0.1536600 0.0255977 -0.1536600
1570.000000 0.0245867 -0.1504879 0.9754133 0.1504879 0.9754133 0.1504879 0.0245867 -0.1504879
1591.000000 0.0236165 -0.1473725 0.9763835 0.1473725 0.9763835 0.1473725 0.0236165 -0.1473725
1612.000000 0.0226852 -0.1443118 0.9773148 0.1443118 0.9773148 0.1443118 0.0226852 -0.1443118
1633.000000 0.0217909 -0.1413040 0.9782091 0.1413040 0.9782091 0.1413040 0.0217909 -0.1413040
1654.000000 0.0209319 -0.1383475 0.9790681 0.1383475 0.9790681 0.1383475 0.0209319 -0.1383475
1675.000000 0.0201066 -0.1354404 0.9798934 0.1354404 0.9798934 0.1354404 0.0201066 -0.1354404
1696.000000 0.0193136 -0.1325813 0.9806864 0.1325813 0.9806864 0.1325813 0.0193136 -0.1325813
1717.000000 0.0185513 -0.1297685 0.9814487 0.1297685 0.9814487 0.1297685 0.0185513 -0.1297685
1738.000000 0.0178185 -0.1270006 0.9821815 0.1270006 0.9821815 0.1270006 0.0178185 -0.1270006
1759.000000 0.0171139 -0.1242762 0.9828861 0.1242762 0.9828861 0.1242762 0.0171139 -0.1242762
1780.000000 0.0164362 -0.1215938 0.9835638 0.1215938 0.9835638 0.1215938 0.0164362 -0.1215938
1801.000000 0.0157844 -0.1189521 0.9842156 0.1189521 0.9842156 0.1189521 0.0157844 -0.1189521
1822.000000 0.0151573 -0.1163499 0.9848427 0.1163499 0.9848427 0.1163499 0.0151573 -0.1163499
1843.000000 0.0145539 -0.1137859 0.9854461 0.1137859 0.9854461 0.1137859 0.0145539 -0.1137859
1864.000000 0.0139733 -0.1112590 0.9860267 0.1112590 0.9860267 0.1112590 0.0139733 -0.1112590
1885.000000 0.0134146 -0.1087680 0.9865854 0.1087680 0.9865854 0.1087680 0.0134146 -0.1087680
1906.000000 0.0128769 -0.1063118 0.9871231 0.1063118 0.9871231 0.1063118 0.0128769 -0.1063118
1927.000000 0.0123593 -0.1038893 0.9876407 0.1038893 0.9876407 0.1038893 0.0123593 -0.1038893
1948.000000 0.0118612 -0.1014995 0.9881388 0.1014995 0.9881388 0.1014995 0.0118612 -0.1014995
1969.000000 0.0113817 -0.0991415 0.9886183 0.0991415 0.9886183 0.0991415 0.0113817 -0.0991415
1990.000000 0.0109201 -0.0968142 0.9890799 0.0968142 0.9890799 0.0968142 0.0109201 -0.0968142
2011.000000 0.0104759 -0.0945168 0.9895241 0.0945168 0.9895241 0.0945168 0.0104759 -0.0945168
2032.000000 0.0100483 -0.0922484 0.9899517 0.0922484 0.9899517 0.0922484 0.0100483 -0.0922484
2053.000000 0.0096368 -0.0900080 0.9903632 0.0900080 0.9903632 0.0900080 0.0096368 -0.0900080
2074.000000 0.0092407 -0.0877950 0.9907593 0.0877950 0.9907593 0.0877950 0.0092407 -0.0877950
2095.000000 0.0088596 -0.0856084 0.9911404 0.0856084 0.9911404 0.0856084 0.0088596 -0.0856084
2116.000000 0.0084929 -0.0834476 0.9915071 0.0834476 0.9915071 0.0834476 0.0084929 -0.0834476
2137.000000 0.0081401 -0.0813117 0.9918599 0.0813117 0.9918599 0.0813117 0.0081401 -0.0813117
2158.000000 0.0078008 -0.0792000 0.9921992 0.0792000 0.9921992 0.0792000 0.0078008 -0.0792000
2179.000000 0.0074745 -0.0771119 0.9925255 0.0771119 0.9925255 0.0771119 0.0074745 -0.0771119
2200.000000 0.0071608 -0.0750466 0.9928392 0.0750466 0.9928392 0.0750466 0.0071608 -0.0750466
2221.000000 0.0068593 -0.0730036 0.9931407 0.0730036 0.9931407 0.0730036 0.0068593 -0.0730036
2242.000000 0.0065695 -0.0709821 0.9934305 0.0709821 0.9934305 0.0709821 0.0065695 -0.0709821
2263.000000 0.0062912 -0.0689815 0.9937088 0.0689815 0.9937088 0.0689815 0.0062912 -0.0689815
2284.000000 0.0060239 -0.0670014 0.9939761 0.0670014 0.9939761 0.0670014 0.0060239 -0.0670014
2305.000000 0.0057673 -0.0650410 0.9942327 0.0650410 0.9942327 0.0650410 0.0057673 -0.0650410
2326.000000 0.0055212 -0.0630998 0.9944788 0.0630998 0.9944788 0.0630998 0.0055212 -0.0630998
2347.000000 0.0052851 -0.0611773 0.9947149 0.0611773 0.9947149 0.0611773 0.0052851 -0.0611773
2368.000000 0.0050588 -0.0592729 0.9949412 0.0592729 0.9949412 0.0592729 0.0050588 -0.0592729
2389.000000 0.0048421 -0.0573862 0.9951579 0.0573862 0.9951579 0.0573862 0.0048421 -0.0573862
2410.000000 0.0046346 -0.0555167 0.9953654 0.0555167 0.9953654 0.0555167 0.0046346 -0.0555167
2431.000000 0.0044360 -0.0536638 0.9955640 0.0536638 0.9955640 0.0536638 0.0044360 -0.0536638
2452.000000 0.0042463 -0.0518270 0.9957537 0.0518270 0.9957537 0.0518270 0.0042463 -0.0518270
2473.000000 0.0040650 -0.0500061 0.9959350 0.0500061 0.9959350 0.0500061 0.0040650 -0.0500061
2494.000000 0.0038920 -0.0482004 0.9961080 0.0482004 0.9961080 0.0482004 0.0038920 -0.0482004
2515.000000 0.0037271 -0.0464096 0.9962729 0.0464096 0.9962729 0.0464096 0.0037271 -0.0464096
2536.000000 0.0035701 -0.0446332 0.9964299 0.0446332 0.9964299 0.0446332 0.0035701 -0.0446332
2557.000000 0.0034207 -0.0428708 0.9965793 0.0428708 0.9965793 0.0428708 0.0034207 -0.0428708
2578.000000 0.0032789 -0.0411221 0.9967211 0.0411221 0.9967211 0.0411221 0.0032789 -0.0411221
2599.000000 0.0031443 -0.0393867 0.9968557 0.0393867 0.9968557 0.0393867 0.0031443 -0.0393867
2620.000000 0.0030168 -0.0376642 0.9969832 0.0376642 0.9969832 0.0376642 0.0030168 -0.0376642
2641.000000 0.0028963 -0.0359541 0.9971037 0.0359541 0.9971037 0.0359541 0.0028963 -0.0359541
2662.000000 0.0027826 -0.0342563 0.9972174 0.0342563 0.9972174 0.0342563 0.0027826 -0.0342563
2683.000000 0.0026756 -0.0325702 0.9973244 0.0325702 0.9973244 0.0325702 0.0026756 -0.0325702
2704.000000 0.0025751 -0.0308956 0.9974249 0.0308956 0.9974249 0.0308956 0.0025751 -0.0308956
2725.000000 0.0024810 -0.0292322 0.9975190 0.0292322 0.9975190 0.0292322 0.0024810 -0.0292322
2746.000000 0.0023931 -0.0275795 0.9976069 0.0275795 0.9976069 0.0275795 0.0023931 -0.0275795
2767.000000 0.0023113 -0.0259374 0.9976887 0.0259374 0.9976887 0.0259374 0.0023113 -0.0259374
2788.000000 0.0022355 -0.0243055 0.9977645 0.0243055 0.9977645 0.0243055 0.0022355 -0.0243055
2809.000000 0.0021656 -0.0226835 0.9978344 0.0226835 0.9978344 0.0226835 0.0021656 -0.0226835
2830.000000 0.0021014 -0.0210711 0.9978986 0.0210711 0.9978986 0.0210711 0.0021014 -0.0210711
2851.000000 0.0020430 -0.0194679 0.9979570 0.0194679 0.9979570 0.0194679 0.0020430 -0.0194679
2872.000000 0.0019901 -0.0178739 0.9980099 0.0178739 0.9980099 0.0178739 0.0019901 -0.0178739
2893.000000 0.0019426 -0.0162886 0.9980574 0.0162886 0.9980574 0.0162886 0.0019426 -0.0162886
2914.000000 0.0019005 -0.0147117 0.9980995 0.0147117 0.9980995 0.0147117 0.0019005 -0.0147117
2935.000000 0.0018638 -0.0131432 0.9981362 0.0131432 0.9981362 0.0131432 0.0018638 -0.0131432
2956.000000 0.0018322 -0.0115825 0.9981678 0.0115825 0.9981678 0.0115825 0.0018322 -0.0115825
2977.000000 0.0018057 -0.0100296 0.9981943 0.0100296 0.9981943 0.0100296 0.0018057 -0.0100296
2998.000000 0.0017843 -0.0084842 0.9982157 0.0084842 0.9982157 0.0084842 0.0017843 -0.0084842
3019.000000 0.0017679 -0.0069460 0.9982321 0.0069460 0.9982321 0.0069460 0.0017679 -0.0069460
3040.000000 0.0017564 -0.0054147 0.9982436 0.0054147 0.9982436 0.0054147 0.0017564 -0.0054147
3061.000000 0.0017497 -0.0038902 0.9982503 0.0038902 0.9982503 0.0038902 0.0017497 -0.0038902
3082.000000 0.0017479 -0.0023723 0.9982521 0.0023723 0.9982521 0.0023723 0.0017479 -0.0023723
3103.000000 0.0017507 -0.0008606 0.9982493 0.0008606 0.9982493 0.0008606 0.0017507 -0.0008606
3124.000000 0.0017582 0.0006450 0.9982418 -0.0006450 0.9982418 -0.0006450 0.0017582 0.0006450
3145.000000 0.0017704 0.0021448 0.9982296 -0.0021448 0.9982296 -0.0021448 0.0017704 0.0021448
3166.000000 0.0017871 0.0036389 0.9982129 -0.0036389 0.9982129 -0.0036389 0.0017871 0.0036389
3187.000000 0.0018084 0.0051276 0.9981916 -0.0051276 0.9981916 -0.0051276 0.0018084 0.0051276
3208.000000 0.0018341 0.0066111 0.9981659 -0.0066111 0.9981659 -0.0066111 0.0018341 0.0066111
3229.000000 0.0018643 0.0080896 0.9981357 -0.0080896 0.9981357 -0.0080896 0.0018643 0.0080896
3250.000000 0.0018989 0.0095633 0.9981011 -0.0095633 0.9981011 -0.0095633 0.0018989 0.0095633
3271.000000 0.0019378 0.0110323 0.9980622 -0.0110323 0.9980622 -0.0110323 0.0019378 0.0110323
3292.000000 0.0019811 0.0124970 0.9980189 -0.0124970 0.9980189 -0.0124970 0.0019811 0.0124970
3313.000000 0.0020287 0.0139575 0.9979713 -0.0139575 0.9979713 -0.0139575 0.0020287 0.0139575
3334.000000 0.0020806 0.0154140 0.9979194 -0.0154140 0.9979194 -0.0154140 0.0020806 0.0154140
3355.000000 0.0021368 0.0168666 0.9978632 -0.0168666 0.9978632 -0.0168666 0.0021368 0.0168666
3376.000000 0.0021972 0.0183156 0.9978028 -0.0183156 0.9978028 -0.0183156 0.0021972 0.0183156
3397.000000 0.0022619 0.0197612 0.9977381 -0.0197612 0.9977381 -0.0197612 0.0022619 0.0197612
3418.000000 0.0023307 0.0212036 0.9976693 -0.0212036 0.9976693 -0.0212036 0.0023307 0.0212036
3439.000000 0.0024037 0.0226428 0.9975963 -0.0226428 0.9975963 -0.0226428 0.0024037 0.0226428
3460.000000 0.0024809 0.0240792 0.9975191 -0.0240792 0.9975191 -0.0240792 0.0024809 0.0240792
3481.000000 0.0025623 0.0255128 0.9974377 -0.0255128 0.9974377 -0.0255128 0.0025623 0.0255128
3502.000000 0.0026479 0.0269440 0.9973521 -0.0269440 0.9973521 -0.0269440 0.0026479 0.0269440
3523.000000 0.0027376 0.0283728 0.9972624 -0.0283728 0.9972624 -0.0283728 0.0027376 0.0283728
3544.000000 0.0028315 0.0297995 0.9971685 -0.0297995 0.9971685 -0.0297995 0.0028315 0.0297995
3565.000000 0.0029295 0.0312241 0.9970705 -0.0312241 0.9970705 -0.0312241 0.0029295 0.0312241
3586.000000 0.0030317 0.0326470 0.9969683 -0.0326470 0.9969683 -0.0326470 0.0030317 0.0326470
3607.000000 0.0031381 0.0340682 0.9968619 -0.0340682 0.9968619 -0.0340682 0.0031381 0.0340682
3628.000000 0.0032486 0.0354880 0.9967514 -0.0354880 0.9967514 -0.0354880 0.0032486 0.0354880
3649.000000 0.0033634 0.0369066 0.9966366 -0.0369066 0.9966366 -0.0369066 0.0033634 0.0369066
3670.000000 0.0034823 0.0383240 0.9965177 -0.0383240 0.9965177 -0.0383240 0.0034823 0.0383240
3691.000000 0.0036054 0.0397405 0.9963946 -0.0397405 0.9963946 -0.0397405 0.0036054 0.0397405
3712.000000 0.0037328 0.0411563 0.9962672 -0.0411563 0.9962672 -0.0411563 0.0037328 0.0411563
3733.000000 0.0038644 0.0425716 0.9961356 -0.0425716 0.9961356 -0.0425716 0.0038644 0.0425716
3754.000000 0.0040004 0.0439865 0.9959996 -0.0439865 0.9959996 -0.0439865 0.0040004 0.0439865
3775.000000 0.0041406 0.0454012 0.9958594 -0.0454012 0.9958594 -0.0454012 0.0041406 0.0454012
3796.000000 0.0042851 0.0468158 0.9957149 -0.0468158 0.9957149 -0.0468158 0.0042851 0.0468158
3817.000000 0.0044340 0.0482307 0.9955660 -0.0482307 0.9955660 -0.0482307 0.0044340 0.0482307
3838.000000 0.0045874 0.0496459 0.9954126 -0.0496459 0.9954126 -0.0496459 0.0045874 0.0496459
3859.000000 0.0047451 0.0510617 0.9952549 -0.0510617 0.9952549 -0.0510617 0.0047451 0.0510617
3880.000000 0.0049073 0.0524782 0.9950927 -0.0524782 0.9950927 -0.0524782 0.0049073 0.0524782
3901.000000 0.0050741 0.0538956 0.9949259 -0.0538956 0.9949259 -0.0538956 0.0050741 0.0538956
3922.000000 0.0052454 0.0553142 0.9947546 -0.0553142 0.9947546 -0.0553142 0.0052454 0.0553142
3943.000000 0.0054214 0.0567340 0.9945786 -0.0567340 0.9945786 -0.0567340 0.0054214 0.0567340
3964.000000 0.0056020 0.0581554 0.9943980 -0.0581554 0.9943980 -0.0581554 0.0056020 0.0581554
3985.000000 0.0057873 0.0595785 0.9942127 -0.0595785 0.9942127 -0.0595785 0.0057873 0.0595785
4006.000000 0.0059775 0.0610035 0.9940225 -0.0610035 0.9940225 -0.0610035 0.0059775 0.0610035
4027.000000 0.0061725 0.0624307 0.9938275 -0.0624307 0.9938275 -0.0624307 0.0061725 0.0624307
4048.000000 0.0063725 0.0638602 0.9936275 -0.0638602 0.9936275 -0.0638602 0.0063725 0.0638602
4069.000000 0.0065774 0.0652923 0.9934226 -0.0652923 0.9934226 -0.0652923 0.0065774 0.0652923
4090.000000 0.0067875 0.0667271 0.9932125 -0.0667271 0.9932125 -0.0667271 0.0067875 0.0667271
4111.000000 0.0070028 0.0681650 0.9929972 -0.0681650 0.9929972 -0.0681650 0.0070028 0.0681650
4132.000000 0.0072233 0.0696062 0.9927767 -0.0696062 0.9927767 -0.0696062 0.0072233 0.0696062
4153.000000 0.0074491 0.0710508 0.9925509 -0.0710508 0.9925509 -0.0710508 0.0074491 0.0710508
4174.000000 0.0076805 0.0724991 0.9923195 -0.0724991 0.9923195 -0.0724991 0.0076805 0.0724991
4195.000000 0.0079174 0.0739515 0.9920826 -0.0739515 0.9920826 -0.0739515 0.0079174 0.0739515
4216.000000 0.0081600 0.0754081 0.9918400 -0.0754081 0.9918400 -0.0754081 0.0081600 0.0754081
4237.000000 0.0084085 0.0768692 0.9915915 -0.0768692 0.9915915 -0.0768692 0.0084085 0.0768692
4258.000000 0.0086629 0.0783351 0.9913371 -0.0783351 0.9913371 -0.0783351 0.0086629 0.0783351
4279.000000 0.0089234 0.0798061 0.9910766 -0.0798061 0.9910766 -0.0798061 0.0089234 0.0798061
4300.000000 0.0091901 0.0812825 0.9908099 -0.0812825 0.9908099 -0.0812825 0.0091901 0.0812825
4321.000000 0.0094632 0.0827646 0.9905368 -0.0827646 0.9905368 -0.0827646 0.0094632 0.0827646
4342.000000 0.0097429 0.0842528 0.9902571 -0.0842528 0.9902571 -0.0842528 0.0097429 0.0842528
4363.000000 0.0100294 0.0857472 0.9899706 -0.0857472 0.9899706 -0.0857472 0.0100294 0.0857472
4384.000000 0.0103228 0.0872484 0.9896772 -0.0872484 0.9896772 -0.0872484 0.0103228 0.0872484
4405.000000 0.0106233 0.0887567 0.9893767 -0.0887567 0.9893767 -0.0887567 0.0106233 0.0887567
4426.000000 0.0109312 0.0902724 0.9890688 -0.0902724 0.9890688 -0.0902724 0.0109312 0.0902724
4447.000000 0.0112467 0.0917959 0.9887533 -0.0917959 0.9887533 -0.0917959 0.0112467 0.0917959
4468.000000 0.0115700 0.0933278 0.9884300 -0.0933278 0.9884300 -0.0933278 0.0115700 0.0933278
4489.000000 0.0119015 0.0948683 0.9880985 -0.0948683 0.9880985 -0.0948683 0.0119015 0.0948683
4510.000000 0.0122414 0.0964180 0.9877586 -0.0964180 0.9877586 -0.0964180 0.0122414 0.0964180
4531.000000 0.0125899 0.0979773 0.9874101 -0.0979773 0.9874101 -0.0979773 0.0125899 0.0979773
4552.000000 0.0129476 0.0995469 0.9870524 -0.0995469 0.9870524 -0.0995469 0.0129476 0.0995469
4573.000000 0.0133146 0.1011271 0.9866854 -0.1011271 0.9866854 -0.1011271 0.0133146 0.1011271
4594.000000 0.0136915 0.1027187 0.9863085 -0.1027187 0.9863085 -0.1027187 0.0136915 0.1027187
4615.000000 0.0140785 0.1043221 0.9859215 -0.1043221 0.9859215 -0.1043221 0.0140785 0.1043221
4636.000000 0.0144763 0.1059381 0.9855237 -0.1059381 0.9855237 -0.1059381 0.0144763 0.1059381
4657.000000 0.0148852 0.1075674 0.9851148 -0.1075674 0.9851148 -0.1075674 0.0148852 0.1075674
4678.000000 0.0153058 0.1092106 0.9846942 -0.1092106 0.9846942 -0.1092106 0.0153058 0.1092106
4699.000000 0.0157388 0.1108686 0.9842612 -0.1108686 0.9842612 -0.1108686 0.0157388 0.1108686
4720.000000 0.0161846 0.1125423 0.9838154 -0.1125423 0.9838154 -0.1125423 0.0161846 0.1125423
4741.000000 0.0166441 0.1142324 0.9833559 -0.1142324 0.9833559 -0.1142324 0.0166441 0.1142324
4762.000000 0.0171180 0.1159401 0.9828820 -0.1159401 0.9828820 -0.1159401 0.0171180 0.1159401
4783.000000 0.0176071 0.1176663 0.9823929 -0.1176663 0.9823929 -0.1176663 0.0176071 0.1176663
4804.000000 0.0181124 0.1194122 0.9818876 -0.1194122 0.9818876 -0.1194122 0.0181124 0.1194122
4825.000000 0.0186349 0.1211790 0.9813651 -0.1211790 0.9813651 -0.1211790 0.0186349 0.1211790
4846.000000 0.0191758 0.1229680 0.9808242 -0.1229680 0.9808242 -0.1229680 0.0191758 0.1229680
4867.000000 0.0197362 0.1247807 0.9802638 -0.1247807 0.9802638 -0.1247807 0.0197362 0.1247807
4888.000000 0.0203176 0.1266187 0.9796824 -0.1266187 0.9796824 -0.1266187 0.0203176 0.1266187
4909.000000 0.0209216 0.1284836 0.9790784 -0.1284836 0.9790784 -0.1284836 0.0209216 0.1284836
4930.000000 0.0215500 0.1303774 0.9784500 -0.1303774 0.9784500 -0.1303774 0.0215500 0.1303774
4951.000000 0.0222047 0.1323020 0.9777953 -0.1323020 0.9777953 -0.1323020 0.0222047 0.1323020
4972.000000 0.0228879 0.1342597 0.9771121 -0.1342597 0.9771121 -0.1342597 0.0228879 0.1342597
4993.000000 0.0236022 0.1362531 0.9763978 -0.1362531 0.9763978 -0.1362531 0.0236022 0.1362531
5014.000000 0.0243505 0.1382849 0.9756495 -0.1382849 0.9756495 -0.1382849 0.0243505 0.1382849
5035.000000 0.0251360 0.1403580 0.9748640 -0.1403580 0.9748640 -0.1403580 0.0251360 0.1403580
5056.000000 0.0259626 0.1424758 0.9740374 -0.1424758 0.9740374 -0.1424758 0.0259626 0.1424758
5077.000000 0.0268347 0.1446422 0.9731653 -0.1446422 0.9731653 -0.1446422 0.0268347 0.1446422
5098.000000 0.0277572 0.1468612 0.9722428 -0.1468612 0.9722428 -0.1468612 0.0277572 0.1468612
5119.000000 0.0287361 0.1491375 0.9712639 -0.1491375 0.9712639 -0.1491375 0.0287361 0.1491375
5140.000000 0.0297783 0.1514763 0.9702217 -0.1514763 0.9702217 -0.1514763 0.0297783 0.1514763
5161.000000 0.0308918 0.1538834 0.9691082 -0.1538834 0.9691082 -0.1538834 0.0308918 0.1538834
5182.000000 0.0320864 0.1563654 0.9679136 -0.1563654 0.9679136 -0.1563654 0.0320864 0.1563654
5203.000000 0.0333735 0.1589297 0.9666265 -0.1589297 0.9666265 -0.1589297 0.0333735 0.1589297
5224.000000 0.0347669 0.1615845 0.9652331 -0.1615845 0.9652331 -0.1615845 0.0347669 0.1615845
5245.000000 0.0362833 0.1643390 0.9637167 -0.1643390 0.9637167 -0.1643390 0.0362833 0.1643390
5266.000000 0.0379431 0.1672039 0.9620569 -0.1672039 0.9620569 -0.1672039 0.0379431 0.1672039
5287.000000 0.0397714 0.1701905 0.9602286 -0.1701905 0.9602286 -0.1701905 0.0397714 0.1701905
5308.000000 0.0417994 0.1733119 0.9582006 -0.1733119 0.9582006 -0.1733119 0.0417994 0.1733119
5329.000000 0.0440660 0.1765819 0.9559340 -0.1765819 0.9559340 -0.1765819 0.0440660 0.1765819
5350.000000 0.0466208 0.1800154 0.9533792 -0.1800154 0.9533792 -0.1800154 0.0466208 0.1800154
5371.000000 0.0495270 0.1836273 0.9504730 -0.1836273 0.9504730 -0.1836273 0.0495270 0.1836273
5392.000000 0.0528663 0.1874314 0.9471337 -0.1874314 0.9471337 -0.1874314 0.0528663 0.1874314
5413.000000 0.0567459 0.1914373 0.9432541 -0.1914373 0.9432541 -0.1914373 0.0567459 0.1914373
5434.000000 0.0613074 0.1956457 0.9386926 -0.1956457 0.9386926 -0.1956457 0.0613074 0.1956457
5455.000000 0.0667397 0.2000385 0.9332603 -0.2000385 0.9332603 -0.2000385 0.0667397 0.2000385
5476.000000 0.0732969 0.2045614 0.9267031 -0.2045614 0.9267031 -0.2045614 0.0732969 0.2045614
5497.000000 0.0813212 0.2090905 0.9186788 -0.2090905 0.9186788 -0.2090905 0.0813212 0.2090905
5518.000000 0.0912678 0.2133703 0.9087322 -0.2133703 0.9087322 -0.2133703 0.0912678 0.2133703
5539.000000 0.1037216 0.2169002 0.8962784 -0.2169002 0.8962784 -0.2169002 0.1037216 0.2169002
5560.000000 0.1193611 0.2187301 0.8806389 -0.2187301 0.8806389 -0.2187301 0.1193611 0.2187301
5581.000000 0.1387560 0.2171325 0.8612440 -0.2171325 0.8612440 -0.2171325 0.1387560 0.2171325
5602.000000 0.1617288 0.2092183 0.8382712 -0.2092183 0.8382712 -0.2092183 0.1617288 0.2092183
5623.000000 0.1858891 0.1910205 0.8141109 -0.1910205 0.8141109 -0.1910205 0.1858891 0.1910205
5644.000000 0.2046532 0.1595596 0.7953468 -0.1595596 0.7953468 -0.1595596 0.2046532 0.1595596
5665.000000 0.2080503 0.1180278 0.7919497 -0.1180278 0.7919497 -0.1180278 0.2080503 0.1180278
5686.000000 0.1907272 0.0785867 0.8092728 -0.0785867 0.8092728 -0.0785867 0.1907272 0.0785867
5707.000000 0.1593329 0.0536910 0.8406671 -0.0536910 0.8406671 -0.0536910 0.1593329 0.0536910
5728.000000 0.1260478 0.0456730 0.8739522 -0.0456730 0.8739522 -0.0456730 0.1260478 0.0456730
5749.000000 0.0983944 0.0491566 0.9016056 -0.0491566 0.9016056 -0.0491566 0.0983944 0.0491566
5770.000000 0.0779788 0.0581855 0.9220212 -0.0581855 0.9220212 -0.0581855 0.0779788 0.0581855
5791.000000 0.0636753 0.0690275 0.9363247 -0.0690275 0.9363247 -0.0690275 0.0636753 0.0690275
5812.000000 0.0538531 0.0798743 0.9461469 -0.0798743 0.9461469 -0.0798743 0.0538531 0.0798743
5833.000000 0.0471523 0.0900036 0.9528477 -0.0900036 0.9528477 -0.0900036 0.0471523 0.0900036
5854.000000 0.0425970 0.0992067 0.9574030 -0.0992067 0.9574030 -0.0992067 0.0425970 0.0992067
5875.000000 0.0395226 0.1074929 0.9604774 -0.1074929 0.9604774 -0.1074929 0.0395226 0.1074929
5896.000000 0.0374826 0.1149515 0.9625174 -0.1149515 0.9625174 -0.1149515 0.0374826 0.1149515
5917.000000 0.0361761 0.1216926 0.9638239 -0.1216926 0.9638239 -0.1216926 0.0361761 0.1216926
5938.000000 0.0353986 0.1278225 0.9646014 -0.1278225 0.9646014 -0.1278225 0.0353986 0.1278225
5959.000000 0.0350088 0.1334355 0.9649912 -0.1334355 0.9649912 -0.1334355 0.0350088 0.1334355
5980.000000 0.0349081 0.1386122 0.9650919 -0.1386122 0.9650919 -0.1386122 0.0349081 0.1386122
6001.000000 0.0350263 0.1434200 0.9649737 -0.1434200 0.9649737 -0.1434200 0.0350263 0.1434200
6022.000000 0.0353130 0.1479151 0.9646870 -0.1479151 0.9646870 -0.1479151 0.0353130 0.1479151
6043.000000 0.0357315 0.1521443 0.9642685 -0.1521443 0.9642685 -0.1521443 0.0357315 0.1521443
6064.000000 0.0362546 0.1561464 0.9637454 -0.1561464 0.9637454 -0.1561464 0.0362546 0.1561464
6085.000000 0.0368622 0.1599539 0.9631378 -0.1599539 0.9631378 -0.1599539 0.0368622 0.1599539
6106.000000 0.0375390 0.1635939 0.9624610 -0.1635939 0.9624610 -0.1635939 0.0375390 0.1635939
6127.000000 0.0382737 0.1670894 0.9617263 -0.1670894 0.9617263 -0.1670894 0.0382737 0.1670894
6148.000000 0.0390575 0.1704598 0.9609425 -0.1704598 0.9609425 -0.1704598 0.0390575 0.1704598
6169.000000 0.0398836 0.1737216 0.9601164 -0.1737216 0.9601164 -0.1737216 0.0398836 0.1737216
6190.000000 0.0407469 0.1768890 0.9592531 -0.1768890 0.9592531 -0.1768890 0.0407469 0.1768890
6211.000000 0.0416434 0.1799742 0.9583566 -0.1799742 0.9583566 -0.1799742 0.0416434 0.1799742
6232.000000 0.0425701 0.1829875 0.9574299 -0.1829875 0.9574299 -0.1829875 0.0425701 0.1829875
6253.000000 0.0435247 0.1859383 0.9564753 -0.1859383 0.9564753 -0.1859383 0.0435247 0.1859383
6274.000000 0.0445053 0.1888344 0.9554947 -0.1888344 0.9554947 -0.1888344 0.0445053 0.1888344
6295.000000 0.0455107 0.1916829 0.9544893 -0.1916829 0.9544893 -0.1916829 0.0455107 0.1916829
6316.000000 0.0465399 0.1944899 0.9534601 -0.1944899 0.9534601 -0.1944899 0.0465399 0.1944899
6337.000000 0.0475922 0.1972609 0.9524078 -0.1972609 0.9524078 -0.1972609 0.0475922 0.1972609
6358.000000 0.0486671 0.2000007 0.9513329 -0.2000007 0.9513329 -0.2000007 0.0486671 0.2000007
6379.000000 0.0497644 0.2027137 0.9502356 -0.2027137 0.9502356 -0.2027137 0.0497644 0.2027137
6400.000000 0.0508840 0.2054037 0.9491160 -0.2054037 0.9491160 -0.2054037 0.0508840 0.2054037
6421.000000 0.0520259 0.2080741 0.9479741 -0.2080741 0.9479741 -0.2080741 0.0520259 0.2080741
6442.000000 0.0531902 0.2107283 0.9468098 -0.2107283 0.9468098 -0.2107283 0.0531902 0.2107283
6463.000000 0.0543772 0.2133689 0.9456228 -0.2133689 0.9456228 -0.2133689 0.0543772 0.2133689
6484.000000 0.0555872 0.2159986 0.9444128 -0.2159986 0.9444128 -0.2159986 0.0555872 0.2159986
6505.000000 0.0568205 0.2186197 0.9431795 -0.2186197 0.9431795 -0.2186197 0.0568205 0.2186197
6526.000000 0.0580777 0.2212344 0.9419223 -0.2212344 0.9419223 -0.2212344 0.0580777 0.2212344
6547.000000 0.0593591 0.2238447 0.9406409 -0.2238447 0.9406409 -0.2238447 0.0593591 0.2238447
6568.000000 0.0606654 0.2264524 0.9393346 -0.2264524 0.9393346 -0.2264524 0.0606654 0.2264524
6589.000000 0.0619971 0.2290592 0.9380029 -0.2290592 0.9380029 -0.2290592 0.0619971 0.2290592
6610.000000 0.0633548 0.2316667 0.9366452 -0.2316667 0.9366452 -0.2316667 0.0633548 0.2316667
6631.000000 0.0647394 0.2342762 0.9352606 -0.2342762 0.9352606 -0.2342762 0.0647394 0.2342762
6652.000000 0.0661513 0.2368893 0.9338487 -0.2368893 0.9338487 -0.2368893 0.0661513 0.2368893
6673.000000 0.0675915 0.2395070 0.9324085 -0.2395070 0.9324085 -0.2395070 0.0675915 0.2395070
6694.000000 0.0690607 0.2421306 0.9309393 -0.2421306 0.9309393 -0.2421306 0.0690607 0.2421306
6715.000000 0.0705597 0.2447613 0.9294403 -0.2447613 0.9294403 -0.2447613 0.0705597 0.2447613
6736.000000 0.0720893 0.2474000 0.9279107 -0.2474000 0.9279107 -0.2474000 0.0720893 0.2474000
6757.000000 0.0736505 0.2500477 0.9263495 -0.2500477 0.9263495 -0.2500477 0.0736505 0.2500477
6778.000000 0.0752442 0.2527054 0.9247558 -0.2527054 0.9247558 -0.2527054 0.0752442 0.2527054
6799.000000 0.0768713 0.2553739 0.9231287 -0.2553739 0.9231287 -0.2553739 0.0768713 0.2553739
6820.000000 0.0785328 0.2580541 0.9214672 -0.2580541 0.9214672 -0.2580541 0.0785328 0.2580541
6841.000000 0.0802298 0.2607468 0.9197702 -0.2607468 0.9197702 -0.2607468 0.0802298 0.2607468
6862.000000 0.0819633 0.2634526 0.9180367 -0.2634526 0.9180367 -0.2634526 0.0819633 0.2634526
6883.000000 0.0837345 0.2661724 0.9162655 -0.2661724 0.9162655 -0.2661724 0.0837345 0.2661724
6904.000000 0.0855445 0.2689067 0.9144555 -0.2689067 0.9144555 -0.2689067 0.0855445 0.2689067
6925.000000 0.0873944 0.2716562 0.9126056 -0.2716562 0.9126056 -0.2716562 0.0873944 0.2716562
6946.000000 0.0892856 0.2744215 0.9107144 -0.2744215 0.9107144 -0.2744215 0.0892856 0.2744215
6967.000000 0.0912192 0.2772032 0.9087808 -0.2772032 0.9087808 -0.2772032 0.0912192 0.2772032
6988.000000 0.0931967 0.2800019 0.9068033 -0.2800019 0.9068033 -0.2800019 0.0931967 0.2800019
7009.000000 0.0952193 0.2828179 0.9047807 -0.2828179 0.9047807 -0.2828179 0.0952193 0.2828179
7030.000000 0.0972885 0.2856519 0.9027115 -0.2856519 0.9027115 -0.2856519 0.0972885 0.2856519
7051.000000 0.0994057 0.2885042 0.9005943 -0.2885042 0.9005943 -0.2885042 0.0994057 0.2885042
7072.000000 0.1015725 0.2913753 0.8984275 -0.2913753 0.8984275 -0.2913753 0.1015725 0.2913753
7093.000000 0.1037905 0.2942656 0.8962095 -0.2942656 0.8962095 -0.2942656 0.1037905 0.2942656
7114.000000 0.1060612 0.2971754 0.8939388 -0.2971754 0.8939388 -0.2971754 0.1060612 0.2971754
7135.000000 0.1083864 0.3001051 0.8916136 -0.3001051 0.8916136 -0.3001051 0.1083864 0.3001051
7156.000000 0.1107677 0.3030549 0.8892323 -0.3030549 0.8892323 -0.3030549 0.1107677 0.3030549
7177.000000 0.1132071 0.3060252 0.8867929 -0.3060252 0.8867929 -0.3060252 0.1132071 0.3060252
7198.000000 0.1157063 0.3090161 0.8842937 -0.3090161 0.8842937 -0.3090161 0.1157063 0.3090161
7219.000000 0.1182674 0.3120278 0.8817326 -0.3120278 0.8817326 -0.3120278 0.1182674 0.3120278
7240.000000 0.1208922 0.3150606 0.8791078 -0.3150606 0.8791078 -0.3150606 0.1208922 0.3150606
7261.000000 0.1235829 0.3181144 0.8764171 -0.3181144 0.8764171 -0.3181144 0.1235829 0.3181144
7282.000000 0.1263417 0.3211895 0.8736583 -0.3211895 0.8736583 -0.3211895 0.1263417 0.3211895
7303.000000 0.1291708 0.3242857 0.8708292 -0.3242857 0.8708292 -0.3242857 0.1291708 0.3242857
7324.000000 0.1320725 0.3274030 0.8679275 -0.3274030 0.8679275 -0.3274030 0.1320725 0.3274030
7345.000000 0.1350492 0.3305415 0.8649508 -0.3305415 0.8649508 -0.3305415 0.1350492 0.3305415
7366.000000 0.1381033 0.3337009 0.8618967 -0.3337009 0.8618967 -0.3337009 0.1381033 0.3337009
7387.000000 0.1412375 0.3368811 0.8587625 -0.3368811 0.8587625 -0.3368811 0.1412375 0.3368811
7408.000000 0.1444544 0.3400817 0.8555456 -0.3400817 0.8555456 -0.3400817 0.1444544 0.3400817
7429.000000 0.1477568 0.3433025 0.8522432 -0.3433025 0.8522432 -0.3433025 0.1477568 0.3433025
7450.000000 0.1511475 0.3465430 0.8488525 -0.3465430 0.8488525 -0.3465430 0.1511475 0.3465430
7471.000000 0.1546294 0.3498028 0.8453706 -0.3498028 0.8453706 -0.3498028 0.1546294 0.3498028
7492.000000 0.1582057 0.3530813 0.8417943 -0.3530813 0.8417943 -0.3530813 0.1582057 0.3530813
7513.000000 0.1618795 0.3563778 0.8381205 -0.3563778 0.8381205 -0.3563778 0.1618795 0.3563778
7534.000000 0.1656540 0.3596915 0.8343460 -0.3596915 0.8343460 -0.3596915 0.1656540 0.3596915
7555.000000 0.1695327 0.3630216 0.8304673 -0.3630216 0.8304673 -0.3630216 0.1695327 0.3630216
7576.000000 0.1735190 0.3663671 0.8264810 -0.3663671 0.8264810 -0.3663671 0.1735190 0.3663671
7597.000000 0.1776166 0.3697269 0.8223834 -0.3697269 0.8223834 -0.3697269 0.1776166 0.3697269
7618.000000 0.1818291 0.3730996 0.8181709 -0.3730996 0.8181709 -0.3730996 0.1818291 0.3730996
7639.000000 0.1861606 0.3764840 0.8138394 -0.3764840 0.8138394 -0.3764840 0.1861606 0.3764840
7660.000000 0.1906148 0.3798784 0.8093852 -0.3798784 0.8093852 -0.3798784 0.1906148 0.3798784
7681.000000 0.1951959 0.3832811 0.8048041 -0.3832811 0.8048041 -0.3832811 0.1951959 0.3832811
7702.000000 0.1999082 0.3866903 0.8000918 -0.3866903 0.8000918 -0.3866903 0.1999082 0.3866903
7723.000000 0.2047559 0.3901038 0.7952441 -0.3901038 0.7952441 -0.3901038 0.2047559 0.3901038
7744.000000 0.2097435 0.3935193 0.7902565 -0.3935193 0.7902565 -0.3935193 0.2097435 0.3935193
7765.000000 0.2148757 0.3969343 0.7851243 -0.3969343 0.7851243 -0.3969343 0.2148757 0.3969343
7786.000000 0.2201571 0.4003461 0.7798429 -0.4003461 0.7798429 -0.4003461 0.2201571 0.4003461
7807.000000 0.2255926 0.4037516 0.7744074 -0.4037516 0.7744074 -0.4037516 0.2255926 0.4037516
7828.000000 0.2311870 0.4071476 0.7688130 -0.4071476 0.7688130 -0.4071476 0.2311870 0.4071476
7849.000000 0.2369454 0.4105303 0.7630546 -0.4105303 0.7630546 -0.4105303 0.2369454 0.4105303
7870.000000 0.2428730 0.4138961 0.7571270 -0.4138961 0.7571270 -0.4138961 0.2428730 0.4138961
7891.000000 0.2489750 0.4172406 0.7510250 -0.4172406 0.7510250 -0.4172406 0.2489750 0.4172406
7912.000000 0.2552566 0.4205592 0.7447434 -0.4205592 0.7447434 -0.4205592 0.2552566 0.4205592
7933.000000 0.2617234 0.4238471 0.7382766 -0.4238471 0.7382766 -0.4238471 0.2617234 0.4238471
7954.000000 0.2683806 0.4270989 0.7316194 -0.4270989 0.7316194 -0.4270989 0.2683806 0.4270989
7975.000000 0.2752337 0.4303088 0.7247663 -0.4303088 0.7247663 -0.4303088 0.2752337 0.4303088
7996.000000 0.2822883 0.4334707 0.7177117 -0.4334707 0.7177117 -0.4334707 0.2822883 0.4334707
8017.000000 0.2895498 0.4365779 0.7104502 -0.4365779 0.7104502 -0.4365779 0.2895498 0.4365779
8038.000000 0.2970236 0.4396234 0.7029764 -0.4396234 0.7029764 -0.4396234 0.2970236 0.4396234
8059.000000 0.3047152 0.4425994 0.6952848 -0.4425994 0.6952848 -0.4425994 0.3047152 0.4425994
8080.000000 0.3126297 0.4454978 0.6873703 -0.4454978 0.6873703 -0.4454978 0.3126297 0.4454978
8101.000000 0.3207724 0.4483101 0.6792276 -0.4483101 0.6792276 -0.4483101 0.3207724 0.4483101
8122.000000 0.3291482 0.4510270 0.6708518 -0.4510270 0.6708518 -0.4510270 0.3291482 0.4510270
8143.000000 0.3377619 0.4536387 0.6622381 -0.4536387 0.6622381 -0.4536387 0.3377619 0.4536387
8164.000000 0.3466180 0.4561350 0.6533820 -0.4561350 0.6533820 -0.4561350 0.3466180 0.4561350
8185.000000 0.3557208 0.4585050 0.6442792 -0.4585050 0.6442792 -0.4585050 0.3557208 0.4585050
8206.000000 0.3650739 0.4607373 0.6349261 -0.4607373 0.6349261 -0.4607373 0.3650739 0.4607373
8227.000000 0.3746810 0.4628201 0.6253190 -0.4628201 0.6253190 -0.4628201 0.3746810 0.4628201
8248.000000 0.3845449 0.4647409 0.6154551 -0.4647409 0.6154551 -0.4647409 0.3845449 0.4647409
8269.000000 0.3946681 0.4664869 0.6053319 -0.4664869 0.6053319 -0.4664869 0.3946681 0.4664869
8290.000000 0.4050525 0.4680449 0.5949475 -0.4680449 0.5949475 -0.4680449 0.4050525 0.4680449
8311.000000 0.4156996 0.4694013 0.5843004 -0.4694013 0.5843004 -0.4694013 0.4156996 0.4694013
8332.000000 0.4266099 0.4705422 0.5733901 -0.4705422 0.5733901 -0.4705422 0.4266099 0.4705422
8353.000000 0.4377837 0.4714537 0.5622163 -0.4714537 0.5622163 -0.4714537 0.4377837 0.4714537
8374.000000 0.4492204 0.4721217 0.5507796 -0.4721217 0.5507796 -0.4721217 0.4492204 0.4721217
8395.000000 0.4609191 0.4725324 0.5390809 -0.4725324 0.5390809 -0.4725324 0.4609191 0.4725324
8416.000000 0.4728783 0.4726718 0.5271217 -0.4726718 0.5271217 -0.4726718 0.4728783 0.4726718
8437.000000 0.4850964 0.4725264 0.5149036 -0.4725264 0.5149036 -0.4725264 0.4850964 0.4725264
8458.000000 0.4975716 0.4720831 0.5024284 -0.4720831 0.5024284 -0.4720831 0.4975716 0.4720831
8479.000000 0.5103022 0.4713293 0.4896978 -0.4713293 0.4896978 -0.4713293 0.5103022 0.4713293
8500.000000 0.5232870 0.4702526 0.4767130 -0.4702526 0.4767130 -0.4702526 0.5232870 0.4702526
